20	50	10	
Compressors
j	cj	dj	qcmin	qcmax	a0	a1	a2	a3	a4	
1	700	2	4.64169	11.9859	8.59222	-0.311798	0.0295567	-0.00391913	0.336829	
2	700	5	3.83075	11.2233	7.24931	-0.46145	0.0456701	-0.00530553	0.540411	
3	700	5	3.11499	10.5501	6.06401	-0.611516	0.0630832	-0.00637361	0.771856	
4	700	1	5.13451	12.4494	9.40834	-0.229808	0.0212587	-0.00302352	0.23682	
5	700	2	1.88493	9.39335	4.02703	-0.919648	0.102778	-0.00755541	1.33278	
6	700	1	1.37958	8.9181	3.19018	-1.0694	0.123983	-0.00763862	1.64702	
7	700	6	2.76715	10.223	5.48799	-0.691578	0.0728874	-0.00681146	0.906517	
8	700	1	2.19218	9.6823	4.53584	-0.835782	0.0914489	-0.00736847	1.16869	
9	700	3	1.63249	9.15595	3.609	-0.992512	0.112939	-0.00763603	1.48227	
10	700	7	3.13638	10.5703	6.09944	-0.606753	0.0625112	-0.00634466	0.76409	
11	700	2	5.20121	12.5121	9.51878	-0.219179	0.0202104	-0.00290036	0.224452	
12	700	5	4.31091	11.6748	8.04445	-0.37048	0.0357261	-0.004501	0.413417	
13	700	7	3.46932	10.8834	6.65077	-0.534909	0.0540368	-0.00586867	0.650289	
14	700	2	5.71633	12.9965	10.3718	-0.140539	0.0126506	-0.0019389	0.137212	
15	700	4	2.20117	9.69075	4.55072	-0.833404	0.0911334	-0.0073617	1.16417	
16	700	7	1.66335	9.18496	3.66009	-0.983405	0.111653	-0.00763011	1.46323	
17	700	1	3.16541	10.5976	6.1475	-0.600321	0.0617408	-0.00630506	0.753646	
18	700	4	5.21972	12.5295	9.54944	-0.216247	0.0199223	-0.0028661	0.221065	
19	700	4	1.94446	9.44933	4.12561	-0.902999	0.100497	-0.00752631	1.29953	
20	700	2	1.42587	8.96163	3.26683	-1.05503	0.121893	-0.00764457	1.61567	
Wells
i	qw	pw	Ni
1	4.3866	4.3192	1 2 3 4 7 10 11 12 13 14 17 18 
2	3.96308	3.72616	1 2 3 4 7 8 10 11 12 13 14 15 17 18 
3	3.61326	3.13148	1 2 3 4 5 7 8 9 10 11 12 13 14 15 16 17 18 19 
4	4.6594	4.64411	1 2 3 4 10 11 12 13 14 17 18 
5	3.05886	1.91042	1 2 3 4 5 6 7 8 9 10 11 12 13 14 15 16 17 18 19 20 
6	2.84658	1.31697	1 2 3 4 5 6 7 8 9 10 11 12 13 14 15 16 17 18 19 20 
7	3.45075	2.81421	1 2 3 4 5 6 7 8 9 10 11 12 13 14 15 16 17 18 19 20 
8	3.19217	2.24276	1 2 3 4 5 6 7 8 9 10 11 12 13 14 15 16 17 18 19 20 
9	2.95176	1.62167	1 2 3 4 5 6 7 8 9 10 11 12 13 14 15 16 17 18 19 20 
10	3.62341	3.15035	1 2 3 4 5 7 8 9 10 11 12 13 14 15 16 17 18 19 
11	4.69727	4.68623	1 2 3 4 10 11 12 13 14 17 18 
12	4.21017	4.08666	1 2 3 4 7 10 11 12 13 14 17 18 
13	3.78376	3.43506	1 2 3 4 5 7 8 10 11 12 13 14 15 17 18 19 
14	4.99781	4.99786	1 2 3 4 10 11 12 13 14 17 18 
15	3.19612	2.25219	1 2 3 4 5 6 7 8 9 10 11 12 13 14 15 16 17 18 19 20 
16	2.96473	1.65776	1 2 3 4 5 6 7 8 9 10 11 12 13 14 15 16 17 18 19 20 
17	3.63721	3.17584	1 2 3 4 5 7 8 9 10 11 12 13 14 15 16 17 18 19 
18	4.70783	4.69785	1 2 3 4 10 11 12 13 14 17 18 
19	3.08443	1.97639	1 2 3 4 5 6 7 8 9 10 11 12 13 14 15 16 17 18 19 20 
20	2.86568	1.37394	1 2 3 4 5 6 7 8 9 10 11 12 13 14 15 16 17 18 19 20 
21	3.4908	2.89513	1 2 3 4 5 6 7 8 9 10 11 12 13 14 15 16 17 18 19 20 
22	4.47187	4.42501	1 2 3 4 7 10 11 12 13 14 17 18 
23	4.03758	3.8395	1 2 3 4 7 8 10 11 12 13 14 15 17 18 
24	2.78048	1.11366	1 2 3 4 5 6 7 8 9 10 11 12 13 14 15 16 17 18 19 20 
25	4.74805	4.74166	1 2 3 4 10 11 12 13 14 17 18 
26	4.24125	4.12903	1 2 3 4 7 10 11 12 13 14 17 18 
27	3.85313	3.55089	1 2 3 4 5 7 8 10 11 12 13 14 15 17 18 19 
28	3.51496	2.94308	1 2 3 4 5 6 7 8 9 10 11 12 13 14 15 16 17 18 19 20 
29	4.51056	4.47171	1 2 3 4 7 10 11 12 13 14 17 18 
30	2.98725	1.71966	1 2 3 4 5 6 7 8 9 10 11 12 13 14 15 16 17 18 19 20 
31	3.68488	3.26243	1 2 3 4 5 7 8 9 10 11 12 13 14 15 16 17 18 19 
32	3.37488	2.65562	1 2 3 4 5 6 7 8 9 10 11 12 13 14 15 16 17 18 19 20 
33	3.11421	2.05186	1 2 3 4 5 6 7 8 9 10 11 12 13 14 15 16 17 18 19 20 
34	2.89494	1.45981	1 2 3 4 5 6 7 8 9 10 11 12 13 14 15 16 17 18 19 20 
35	3.5309	2.97433	1 2 3 4 5 6 7 8 9 10 11 12 13 14 15 16 17 18 19 20 
36	3.24381	2.36417	1 2 3 4 5 6 7 8 9 10 11 12 13 14 15 16 17 18 19 20 
37	3.00208	1.7599	1 2 3 4 5 6 7 8 9 10 11 12 13 14 15 16 17 18 19 20 
38	3.69945	3.28844	1 2 3 4 5 7 8 9 10 11 12 13 14 15 16 17 18 19 
39	4.8193	4.81745	1 2 3 4 10 11 12 13 14 17 18 
40	4.31777	4.23074	1 2 3 4 7 10 11 12 13 14 17 18 
41	3.88038	3.59525	1 2 3 4 7 8 10 11 12 13 14 15 17 18 19 
42	2.70898	0.882582	1 2 3 4 5 6 7 8 9 10 11 12 13 14 15 16 17 18 19 20 
43	3.26399	2.41055	1 2 3 4 5 6 7 8 9 10 11 12 13 14 15 16 17 18 19 20 
44	4.10179	3.93388	1 2 3 4 7 8 10 11 12 13 14 15 17 18 
45	3.72525	3.33402	1 2 3 4 5 7 8 10 11 12 13 14 15 17 18 19 
46	3.41526	2.7409	1 2 3 4 5 6 7 8 9 10 11 12 13 14 15 16 17 18 19 20 
47	4.33828	4.2574	1 2 3 4 7 10 11 12 13 14 17 18 
48	3.9166	3.65327	1 2 3 4 7 8 10 11 12 13 14 15 17 18 
49	2.71973	0.918117	1 2 3 4 5 6 7 8 9 10 11 12 13 14 15 16 17 18 19 20 
50	4.57679	4.54981	1 2 3 4 7 10 11 12 13 14 17 18 
Pipeline drops
i	j	l
1	1	0.1
1	2	0.1
1	3	0.1
1	4	0.1
1	7	0.1
1	10	0.1
1	11	0.1
1	12	0.1
1	13	0.1
1	14	0.1
1	17	0.1
1	18	0.1
2	1	0.1
2	2	0.1
2	3	0.1
2	4	0.1
2	7	0.1
2	8	0.1
2	10	0.1
2	11	0.1
2	12	0.1
2	13	0.1
2	14	0.1
2	15	0.1
2	17	0.1
2	18	0.1
3	1	0.1
3	2	0.1
3	3	0.1
3	4	0.1
3	5	0.1
3	7	0.1
3	8	0.1
3	9	0.1
3	10	0.1
3	11	0.1
3	12	0.1
3	13	0.1
3	14	0.1
3	15	0.1
3	16	0.1
3	17	0.1
3	18	0.1
3	19	0.1
4	1	0.1
4	2	0.1
4	3	0.1
4	4	0.1
4	10	0.1
4	11	0.1
4	12	0.1
4	13	0.1
4	14	0.1
4	17	0.1
4	18	0.1
5	1	0.1
5	2	0.1
5	3	0.1
5	4	0.1
5	5	0.1
5	6	0.1
5	7	0.1
5	8	0.1
5	9	0.1
5	10	0.1
5	11	0.1
5	12	0.1
5	13	0.1
5	14	0.1
5	15	0.1
5	16	0.1
5	17	0.1
5	18	0.1
5	19	0.1
5	20	0.1
6	1	0.1
6	2	0.1
6	3	0.1
6	4	0.1
6	5	0.1
6	6	0.1
6	7	0.1
6	8	0.1
6	9	0.1
6	10	0.1
6	11	0.1
6	12	0.1
6	13	0.1
6	14	0.1
6	15	0.1
6	16	0.1
6	17	0.1
6	18	0.1
6	19	0.1
6	20	0.1
7	1	0.1
7	2	0.1
7	3	0.1
7	4	0.1
7	5	0.1
7	6	0.1
7	7	0.1
7	8	0.1
7	9	0.1
7	10	0.1
7	11	0.1
7	12	0.1
7	13	0.1
7	14	0.1
7	15	0.1
7	16	0.1
7	17	0.1
7	18	0.1
7	19	0.1
7	20	0.1
8	1	0.1
8	2	0.1
8	3	0.1
8	4	0.1
8	5	0.1
8	6	0.1
8	7	0.1
8	8	0.1
8	9	0.1
8	10	0.1
8	11	0.1
8	12	0.1
8	13	0.1
8	14	0.1
8	15	0.1
8	16	0.1
8	17	0.1
8	18	0.1
8	19	0.1
8	20	0.1
9	1	0.1
9	2	0.1
9	3	0.1
9	4	0.1
9	5	0.1
9	6	0.1
9	7	0.1
9	8	0.1
9	9	0.1
9	10	0.1
9	11	0.1
9	12	0.1
9	13	0.1
9	14	0.1
9	15	0.1
9	16	0.1
9	17	0.1
9	18	0.1
9	19	0.1
9	20	0.1
10	1	0.1
10	2	0.1
10	3	0.1
10	4	0.1
10	5	0.1
10	7	0.1
10	8	0.1
10	9	0.1
10	10	0.1
10	11	0.1
10	12	0.1
10	13	0.1
10	14	0.1
10	15	0.1
10	16	0.1
10	17	0.1
10	18	0.1
10	19	0.1
11	1	0.1
11	2	0.1
11	3	0.1
11	4	0.1
11	10	0.1
11	11	0.1
11	12	0.1
11	13	0.1
11	14	0.1
11	17	0.1
11	18	0.1
12	1	0.1
12	2	0.1
12	3	0.1
12	4	0.1
12	7	0.1
12	10	0.1
12	11	0.1
12	12	0.1
12	13	0.1
12	14	0.1
12	17	0.1
12	18	0.1
13	1	0.1
13	2	0.1
13	3	0.1
13	4	0.1
13	5	0.1
13	7	0.1
13	8	0.1
13	10	0.1
13	11	0.1
13	12	0.1
13	13	0.1
13	14	0.1
13	15	0.1
13	17	0.1
13	18	0.1
13	19	0.1
14	1	0.1
14	2	0.1
14	3	0.1
14	4	0.1
14	10	0.1
14	11	0.1
14	12	0.1
14	13	0.1
14	14	0.1
14	17	0.1
14	18	0.1
15	1	0.1
15	2	0.1
15	3	0.1
15	4	0.1
15	5	0.1
15	6	0.1
15	7	0.1
15	8	0.1
15	9	0.1
15	10	0.1
15	11	0.1
15	12	0.1
15	13	0.1
15	14	0.1
15	15	0.1
15	16	0.1
15	17	0.1
15	18	0.1
15	19	0.1
15	20	0.1
16	1	0.1
16	2	0.1
16	3	0.1
16	4	0.1
16	5	0.1
16	6	0.1
16	7	0.1
16	8	0.1
16	9	0.1
16	10	0.1
16	11	0.1
16	12	0.1
16	13	0.1
16	14	0.1
16	15	0.1
16	16	0.1
16	17	0.1
16	18	0.1
16	19	0.1
16	20	0.1
17	1	0.1
17	2	0.1
17	3	0.1
17	4	0.1
17	5	0.1
17	7	0.1
17	8	0.1
17	9	0.1
17	10	0.1
17	11	0.1
17	12	0.1
17	13	0.1
17	14	0.1
17	15	0.1
17	16	0.1
17	17	0.1
17	18	0.1
17	19	0.1
18	1	0.1
18	2	0.1
18	3	0.1
18	4	0.1
18	10	0.1
18	11	0.1
18	12	0.1
18	13	0.1
18	14	0.1
18	17	0.1
18	18	0.1
19	1	0.1
19	2	0.1
19	3	0.1
19	4	0.1
19	5	0.1
19	6	0.1
19	7	0.1
19	8	0.1
19	9	0.1
19	10	0.1
19	11	0.1
19	12	0.1
19	13	0.1
19	14	0.1
19	15	0.1
19	16	0.1
19	17	0.1
19	18	0.1
19	19	0.1
19	20	0.1
20	1	0.1
20	2	0.1
20	3	0.1
20	4	0.1
20	5	0.1
20	6	0.1
20	7	0.1
20	8	0.1
20	9	0.1
20	10	0.1
20	11	0.1
20	12	0.1
20	13	0.1
20	14	0.1
20	15	0.1
20	16	0.1
20	17	0.1
20	18	0.1
20	19	0.1
20	20	0.1
21	1	0.1
21	2	0.1
21	3	0.1
21	4	0.1
21	5	0.1
21	6	0.1
21	7	0.1
21	8	0.1
21	9	0.1
21	10	0.1
21	11	0.1
21	12	0.1
21	13	0.1
21	14	0.1
21	15	0.1
21	16	0.1
21	17	0.1
21	18	0.1
21	19	0.1
21	20	0.1
22	1	0.1
22	2	0.1
22	3	0.1
22	4	0.1
22	7	0.1
22	10	0.1
22	11	0.1
22	12	0.1
22	13	0.1
22	14	0.1
22	17	0.1
22	18	0.1
23	1	0.1
23	2	0.1
23	3	0.1
23	4	0.1
23	7	0.1
23	8	0.1
23	10	0.1
23	11	0.1
23	12	0.1
23	13	0.1
23	14	0.1
23	15	0.1
23	17	0.1
23	18	0.1
24	1	0.1
24	2	0.1
24	3	0.1
24	4	0.1
24	5	0.1
24	6	0.1
24	7	0.1
24	8	0.1
24	9	0.1
24	10	0.1
24	11	0.1
24	12	0.1
24	13	0.1
24	14	0.1
24	15	0.1
24	16	0.1
24	17	0.1
24	18	0.1
24	19	0.1
24	20	0.1
25	1	0.1
25	2	0.1
25	3	0.1
25	4	0.1
25	10	0.1
25	11	0.1
25	12	0.1
25	13	0.1
25	14	0.1
25	17	0.1
25	18	0.1
26	1	0.1
26	2	0.1
26	3	0.1
26	4	0.1
26	7	0.1
26	10	0.1
26	11	0.1
26	12	0.1
26	13	0.1
26	14	0.1
26	17	0.1
26	18	0.1
27	1	0.1
27	2	0.1
27	3	0.1
27	4	0.1
27	5	0.1
27	7	0.1
27	8	0.1
27	10	0.1
27	11	0.1
27	12	0.1
27	13	0.1
27	14	0.1
27	15	0.1
27	17	0.1
27	18	0.1
27	19	0.1
28	1	0.1
28	2	0.1
28	3	0.1
28	4	0.1
28	5	0.1
28	6	0.1
28	7	0.1
28	8	0.1
28	9	0.1
28	10	0.1
28	11	0.1
28	12	0.1
28	13	0.1
28	14	0.1
28	15	0.1
28	16	0.1
28	17	0.1
28	18	0.1
28	19	0.1
28	20	0.1
29	1	0.1
29	2	0.1
29	3	0.1
29	4	0.1
29	7	0.1
29	10	0.1
29	11	0.1
29	12	0.1
29	13	0.1
29	14	0.1
29	17	0.1
29	18	0.1
30	1	0.1
30	2	0.1
30	3	0.1
30	4	0.1
30	5	0.1
30	6	0.1
30	7	0.1
30	8	0.1
30	9	0.1
30	10	0.1
30	11	0.1
30	12	0.1
30	13	0.1
30	14	0.1
30	15	0.1
30	16	0.1
30	17	0.1
30	18	0.1
30	19	0.1
30	20	0.1
31	1	0.1
31	2	0.1
31	3	0.1
31	4	0.1
31	5	0.1
31	7	0.1
31	8	0.1
31	9	0.1
31	10	0.1
31	11	0.1
31	12	0.1
31	13	0.1
31	14	0.1
31	15	0.1
31	16	0.1
31	17	0.1
31	18	0.1
31	19	0.1
32	1	0.1
32	2	0.1
32	3	0.1
32	4	0.1
32	5	0.1
32	6	0.1
32	7	0.1
32	8	0.1
32	9	0.1
32	10	0.1
32	11	0.1
32	12	0.1
32	13	0.1
32	14	0.1
32	15	0.1
32	16	0.1
32	17	0.1
32	18	0.1
32	19	0.1
32	20	0.1
33	1	0.1
33	2	0.1
33	3	0.1
33	4	0.1
33	5	0.1
33	6	0.1
33	7	0.1
33	8	0.1
33	9	0.1
33	10	0.1
33	11	0.1
33	12	0.1
33	13	0.1
33	14	0.1
33	15	0.1
33	16	0.1
33	17	0.1
33	18	0.1
33	19	0.1
33	20	0.1
34	1	0.1
34	2	0.1
34	3	0.1
34	4	0.1
34	5	0.1
34	6	0.1
34	7	0.1
34	8	0.1
34	9	0.1
34	10	0.1
34	11	0.1
34	12	0.1
34	13	0.1
34	14	0.1
34	15	0.1
34	16	0.1
34	17	0.1
34	18	0.1
34	19	0.1
34	20	0.1
35	1	0.1
35	2	0.1
35	3	0.1
35	4	0.1
35	5	0.1
35	6	0.1
35	7	0.1
35	8	0.1
35	9	0.1
35	10	0.1
35	11	0.1
35	12	0.1
35	13	0.1
35	14	0.1
35	15	0.1
35	16	0.1
35	17	0.1
35	18	0.1
35	19	0.1
35	20	0.1
36	1	0.1
36	2	0.1
36	3	0.1
36	4	0.1
36	5	0.1
36	6	0.1
36	7	0.1
36	8	0.1
36	9	0.1
36	10	0.1
36	11	0.1
36	12	0.1
36	13	0.1
36	14	0.1
36	15	0.1
36	16	0.1
36	17	0.1
36	18	0.1
36	19	0.1
36	20	0.1
37	1	0.1
37	2	0.1
37	3	0.1
37	4	0.1
37	5	0.1
37	6	0.1
37	7	0.1
37	8	0.1
37	9	0.1
37	10	0.1
37	11	0.1
37	12	0.1
37	13	0.1
37	14	0.1
37	15	0.1
37	16	0.1
37	17	0.1
37	18	0.1
37	19	0.1
37	20	0.1
38	1	0.1
38	2	0.1
38	3	0.1
38	4	0.1
38	5	0.1
38	7	0.1
38	8	0.1
38	9	0.1
38	10	0.1
38	11	0.1
38	12	0.1
38	13	0.1
38	14	0.1
38	15	0.1
38	16	0.1
38	17	0.1
38	18	0.1
38	19	0.1
39	1	0.1
39	2	0.1
39	3	0.1
39	4	0.1
39	10	0.1
39	11	0.1
39	12	0.1
39	13	0.1
39	14	0.1
39	17	0.1
39	18	0.1
40	1	0.1
40	2	0.1
40	3	0.1
40	4	0.1
40	7	0.1
40	10	0.1
40	11	0.1
40	12	0.1
40	13	0.1
40	14	0.1
40	17	0.1
40	18	0.1
41	1	0.1
41	2	0.1
41	3	0.1
41	4	0.1
41	7	0.1
41	8	0.1
41	10	0.1
41	11	0.1
41	12	0.1
41	13	0.1
41	14	0.1
41	15	0.1
41	17	0.1
41	18	0.1
41	19	0.1
42	1	0.1
42	2	0.1
42	3	0.1
42	4	0.1
42	5	0.1
42	6	0.1
42	7	0.1
42	8	0.1
42	9	0.1
42	10	0.1
42	11	0.1
42	12	0.1
42	13	0.1
42	14	0.1
42	15	0.1
42	16	0.1
42	17	0.1
42	18	0.1
42	19	0.1
42	20	0.1
43	1	0.1
43	2	0.1
43	3	0.1
43	4	0.1
43	5	0.1
43	6	0.1
43	7	0.1
43	8	0.1
43	9	0.1
43	10	0.1
43	11	0.1
43	12	0.1
43	13	0.1
43	14	0.1
43	15	0.1
43	16	0.1
43	17	0.1
43	18	0.1
43	19	0.1
43	20	0.1
44	1	0.1
44	2	0.1
44	3	0.1
44	4	0.1
44	7	0.1
44	8	0.1
44	10	0.1
44	11	0.1
44	12	0.1
44	13	0.1
44	14	0.1
44	15	0.1
44	17	0.1
44	18	0.1
45	1	0.1
45	2	0.1
45	3	0.1
45	4	0.1
45	5	0.1
45	7	0.1
45	8	0.1
45	10	0.1
45	11	0.1
45	12	0.1
45	13	0.1
45	14	0.1
45	15	0.1
45	17	0.1
45	18	0.1
45	19	0.1
46	1	0.1
46	2	0.1
46	3	0.1
46	4	0.1
46	5	0.1
46	6	0.1
46	7	0.1
46	8	0.1
46	9	0.1
46	10	0.1
46	11	0.1
46	12	0.1
46	13	0.1
46	14	0.1
46	15	0.1
46	16	0.1
46	17	0.1
46	18	0.1
46	19	0.1
46	20	0.1
47	1	0.1
47	2	0.1
47	3	0.1
47	4	0.1
47	7	0.1
47	10	0.1
47	11	0.1
47	12	0.1
47	13	0.1
47	14	0.1
47	17	0.1
47	18	0.1
48	1	0.1
48	2	0.1
48	3	0.1
48	4	0.1
48	7	0.1
48	8	0.1
48	10	0.1
48	11	0.1
48	12	0.1
48	13	0.1
48	14	0.1
48	15	0.1
48	17	0.1
48	18	0.1
49	1	0.1
49	2	0.1
49	3	0.1
49	4	0.1
49	5	0.1
49	6	0.1
49	7	0.1
49	8	0.1
49	9	0.1
49	10	0.1
49	11	0.1
49	12	0.1
49	13	0.1
49	14	0.1
49	15	0.1
49	16	0.1
49	17	0.1
49	18	0.1
49	19	0.1
49	20	0.1
50	1	0.1
50	2	0.1
50	3	0.1
50	4	0.1
50	7	0.1
50	10	0.1
50	11	0.1
50	12	0.1
50	13	0.1
50	14	0.1
50	17	0.1
50	18	0.1
Service cost
i	j	c
1	1	140
1	2	531
1	3	304
1	4	303
1	7	750
1	10	824
1	11	186
1	12	774
1	13	612
1	14	458
1	17	243
1	18	334
2	1	416
2	2	267
2	3	215
2	4	644
2	7	76
2	8	718
2	10	820
2	11	527
2	12	241
2	13	550
2	14	86
2	15	632
2	17	724
2	18	554
3	1	508
3	2	51
3	3	149
3	4	101
3	5	644
3	7	367
3	8	416
3	9	681
3	10	714
3	11	682
3	12	112
3	13	559
3	14	505
3	15	68
3	16	201
3	17	177
3	18	322
3	19	270
4	1	406
4	2	234
4	3	59
4	4	461
4	10	499
4	11	181
4	12	342
4	13	378
4	14	212
4	17	656
4	18	144
5	1	376
5	2	377
5	3	241
5	4	552
5	5	122
5	6	504
5	7	252
5	8	109
5	9	165
5	10	415
5	11	357
5	12	598
5	13	535
5	14	505
5	15	319
5	16	400
5	17	259
5	18	410
5	19	231
5	20	466
6	1	729
6	2	379
6	3	708
6	4	660
6	5	247
6	6	217
6	7	439
6	8	161
6	9	501
6	10	480
6	11	448
6	12	259
6	13	247
6	14	682
6	15	93
6	16	479
6	17	366
6	18	589
6	19	401
6	20	773
7	1	343
7	2	347
7	3	428
7	4	113
7	5	731
7	6	360
7	7	677
7	8	413
7	9	354
7	10	495
7	11	121
7	12	481
7	13	71
7	14	602
7	15	420
7	16	698
7	17	548
7	18	193
7	19	187
7	20	186
8	1	607
8	2	580
8	3	480
8	4	551
8	5	608
8	6	279
8	7	425
8	8	620
8	9	133
8	10	754
8	11	697
8	12	120
8	13	519
8	14	467
8	15	222
8	16	331
8	17	149
8	18	470
8	19	212
8	20	216
9	1	460
9	2	362
9	3	222
9	4	372
9	5	506
9	6	80
9	7	453
9	8	376
9	9	294
9	10	352
9	11	240
9	12	428
9	13	433
9	14	377
9	15	360
9	16	188
9	17	689
9	18	131
9	19	111
9	20	202
10	1	535
10	2	399
10	3	405
10	4	578
10	5	47
10	7	97
10	8	273
10	9	321
10	10	567
10	11	252
10	12	656
10	13	617
10	14	539
10	15	162
10	16	526
10	17	271
10	18	338
10	19	392
11	1	910
11	2	331
11	3	787
11	4	733
11	10	171
11	11	628
11	12	104
11	13	201
11	14	672
11	17	578
11	18	642
12	1	410
12	2	551
12	3	600
12	4	240
12	7	880
12	10	194
12	11	469
12	12	607
12	13	338
12	14	778
12	17	339
12	18	264
13	1	557
13	2	812
13	3	737
13	4	730
13	5	469
13	7	489
13	8	627
13	10	605
13	11	373
13	12	444
13	13	455
13	14	427
13	15	398
13	17	638
13	18	223
13	19	439
14	1	173
14	2	593
14	3	461
14	4	537
14	10	713
14	11	324
14	12	138
14	13	180
14	14	448
14	17	309
14	18	605
15	1	296
15	2	261
15	3	345
15	4	268
15	5	541
15	6	507
15	7	660
15	8	390
15	9	493
15	10	246
15	11	533
15	12	202
15	13	97
15	14	226
15	15	629
15	16	107
15	17	329
15	18	477
15	19	484
15	20	738
16	1	520
16	2	371
16	3	270
16	4	245
16	5	497
16	6	521
16	7	513
16	8	652
16	9	227
16	10	573
16	11	443
16	12	712
16	13	540
16	14	82
16	15	727
16	16	297
16	17	502
16	18	213
16	19	661
16	20	129
17	1	386
17	2	492
17	3	432
17	4	678
17	5	20
17	7	551
17	8	498
17	9	444
17	10	553
17	11	746
17	12	352
17	13	657
17	14	455
17	15	403
17	16	152
17	17	383
17	18	550
17	19	645
18	1	125
18	2	582
18	3	608
18	4	449
18	10	203
18	11	294
18	12	310
18	13	205
18	14	162
18	17	530
18	18	379
19	1	108
19	2	606
19	3	427
19	4	258
19	5	468
19	6	336
19	7	181
19	8	125
19	9	635
19	10	446
19	11	213
19	12	181
19	13	103
19	14	506
19	15	351
19	16	518
19	17	283
19	18	500
19	19	396
19	20	597
20	1	478
20	2	24
20	3	438
20	4	172
20	5	406
20	6	229
20	7	487
20	8	389
20	9	511
20	10	458
20	11	276
20	12	268
20	13	274
20	14	138
20	15	405
20	16	328
20	17	139
20	18	200
20	19	542
20	20	486
21	1	740
21	2	285
21	3	515
21	4	473
21	5	408
21	6	500
21	7	293
21	8	643
21	9	268
21	10	332
21	11	561
21	12	542
21	13	414
21	14	327
21	15	689
21	16	186
21	17	581
21	18	397
21	19	444
21	20	205
22	1	383
22	2	560
22	3	538
22	4	568
22	7	751
22	10	308
22	11	717
22	12	480
22	13	592
22	14	641
22	17	137
22	18	461
23	1	221
23	2	745
23	3	732
23	4	615
23	7	372
23	8	328
23	10	132
23	11	681
23	12	395
23	13	433
23	14	404
23	15	528
23	17	465
23	18	730
24	1	571
24	2	701
24	3	552
24	4	240
24	5	792
24	6	297
24	7	616
24	8	357
24	9	617
24	10	38
24	11	455
24	12	601
24	13	555
24	14	703
24	15	143
24	16	524
24	17	709
24	18	460
24	19	442
24	20	486
25	1	816
25	2	481
25	3	706
25	4	608
25	10	829
25	11	199
25	12	730
25	13	743
25	14	595
25	17	409
25	18	276
26	1	341
26	2	372
26	3	102
26	4	64
26	7	569
26	10	639
26	11	292
26	12	712
26	13	529
26	14	100
26	17	367
26	18	73
27	1	328
27	2	365
27	3	290
27	4	640
27	5	201
27	7	370
27	8	545
27	10	625
27	11	653
27	12	209
27	13	592
27	14	276
27	15	443
27	17	475
27	18	514
27	19	627
28	1	194
28	2	406
28	3	444
28	4	276
28	5	349
28	6	513
28	7	240
28	8	88
28	9	673
28	10	372
28	11	750
28	12	211
28	13	549
28	14	500
28	15	316
28	16	425
28	17	182
28	18	564
28	19	258
28	20	227
29	1	533
29	2	430
29	3	311
29	4	379
29	7	536
29	10	305
29	11	326
29	12	513
29	13	508
29	14	464
29	17	749
29	18	181
30	1	630
30	2	464
30	3	498
30	4	638
30	5	137
30	6	450
30	7	30
30	8	366
30	9	403
30	10	662
30	11	258
30	12	726
30	13	697
30	14	604
30	15	119
30	16	617
30	17	341
30	18	360
30	19	476
30	20	242
31	1	547
31	2	65
31	3	418
31	4	365
31	5	128
31	7	281
31	8	311
31	9	148
31	10	355
31	11	285
31	12	370
31	13	186
31	14	338
31	15	369
31	16	149
31	17	269
31	18	276
31	19	381
32	1	57
32	2	245
32	3	256
32	4	307
32	5	376
32	6	263
32	7	527
32	8	250
32	9	142
32	10	351
32	11	393
32	12	241
32	13	286
32	14	419
32	15	166
32	16	370
32	17	280
32	18	178
32	19	285
32	20	411
33	1	251
33	2	481
33	3	435
33	4	375
33	5	274
33	6	348
33	7	118
33	8	280
33	9	337
33	10	410
33	11	634
33	12	388
33	13	642
33	14	599
33	15	272
33	16	182
33	17	500
33	18	60
33	19	479
33	20	552
34	1	364
34	2	361
34	3	300
34	4	646
34	5	32
34	6	489
34	7	277
34	8	538
34	9	490
34	10	765
34	11	318
34	12	264
34	13	348
34	14	208
34	15	708
34	16	428
34	17	577
34	18	471
34	19	390
34	20	563
35	1	46
35	2	413
35	3	108
35	4	512
35	5	453
35	6	649
35	7	585
35	8	228
35	9	274
35	10	84
35	11	588
35	12	476
35	13	373
35	14	461
35	15	619
35	16	169
35	17	386
35	18	582
35	19	237
35	20	758
36	1	467
36	2	136
36	3	333
36	4	280
36	5	208
36	6	202
36	7	357
36	8	336
36	9	99
36	10	431
36	11	224
36	12	454
36	13	271
36	14	270
36	15	408
36	16	177
36	17	233
36	18	192
36	19	465
36	20	388
37	1	70
37	2	213
37	3	197
37	4	380
37	5	325
37	6	347
37	7	453
37	8	327
37	9	224
37	10	424
37	11	428
37	12	163
37	13	342
37	14	343
37	15	233
37	16	292
37	17	326
37	18	252
37	19	366
37	20	433
38	1	207
38	2	418
38	3	388
38	4	302
38	5	279
38	7	34
38	8	208
38	9	412
38	10	397
38	11	374
38	12	296
38	13	359
38	14	319
38	15	281
38	16	170
38	17	504
38	18	225
38	19	282
39	1	86
39	2	511
39	3	350
39	4	397
39	10	560
39	11	174
39	12	26
39	13	64
39	14	387
39	17	333
39	18	471
40	1	323
40	2	133
40	3	302
40	4	243
40	7	509
40	10	301
40	11	379
40	12	262
40	13	204
40	14	191
40	17	171
40	18	334
41	1	77
41	2	538
41	3	244
41	4	253
41	7	759
41	8	498
41	10	833
41	11	213
41	12	806
41	13	637
41	14	414
41	15	589
41	17	287
41	18	301
41	19	855
42	1	431
42	2	308
42	3	240
42	4	684
42	5	516
42	6	740
42	7	56
42	8	728
42	9	622
42	10	827
42	11	586
42	12	240
42	13	596
42	14	60
42	15	636
42	16	348
42	17	717
42	18	586
42	19	706
42	20	542
43	1	480
43	2	126
43	3	221
43	4	108
43	5	624
43	6	399
43	7	368
43	8	380
43	9	722
43	10	680
43	11	845
43	12	242
43	13	681
43	14	628
43	15	265
43	16	398
43	17	22
43	18	514
43	19	373
43	20	54
44	1	587
44	2	265
44	3	218
44	4	537
44	7	560
44	8	537
44	10	493
44	11	356
44	12	534
44	13	558
44	14	345
44	15	517
44	17	829
44	18	54
45	1	553
45	2	540
45	3	413
45	4	720
45	5	147
45	7	161
45	8	293
45	10	600
45	11	415
45	12	782
45	13	727
45	14	677
45	15	302
45	17	412
45	18	503
45	19	344
46	1	549
46	2	247
46	3	512
46	4	465
46	5	156
46	6	31
46	7	400
46	8	112
46	9	327
46	10	464
46	11	262
46	12	345
46	13	212
46	14	497
46	15	177
46	16	345
46	17	189
46	18	395
46	19	434
46	20	613
47	1	166
47	2	165
47	3	238
47	4	212
47	7	505
47	10	469
47	11	198
47	12	285
47	13	130
47	14	419
47	17	457
47	18	138
48	1	436
48	2	422
48	3	338
48	4	367
48	7	237
48	8	433
48	10	609
48	11	739
48	12	248
48	13	659
48	14	607
48	15	124
48	17	268
48	18	256
49	1	451
49	2	144
49	3	87
49	4	589
49	5	242
49	6	340
49	7	388
49	8	522
49	9	247
49	10	643
49	11	266
49	12	362
49	13	424
49	14	68
49	15	618
49	16	190
49	17	700
49	18	244
49	19	199
49	20	325
50	1	274
50	2	450
50	3	136
50	4	607
50	7	385
50	10	328
50	11	493
50	12	622
50	13	539
50	14	556
50	17	355
50	18	532
Points
j	k	q	p
1	0	4.64169	7.97259
1	1	5.45771	7.76206
1	2	6.27374	7.50002
1	3	7.08976	7.17484
1	4	7.90579	6.77455
1	5	8.72181	6.28701
1	6	9.53784	5.69987
1	7	10.3539	5.00072
1	8	11.1699	4.17707
1	9	11.9859	3.21636
2	0	3.83075	6.7047
2	1	4.65215	6.49282
2	2	5.47354	6.23111
2	3	6.29493	5.9047
2	4	7.11632	5.49783
2	5	7.93771	4.99417
2	6	8.75911	4.37708
2	7	9.5805	3.62965
2	8	10.4019	2.73481
2	9	11.2233	1.67538
3	0	3.11499	5.6705
3	1	3.94112	5.47673
3	2	4.76725	5.24433
3	3	5.59337	4.95761
3	4	6.4195	4.59879
3	5	7.24563	4.14891
3	6	8.07176	3.58825
3	7	8.89789	2.89659
3	8	9.72402	2.05342
3	9	10.5501	1.03796
4	0	5.13451	8.80914
4	1	5.94728	8.61655
4	2	6.76004	8.37752
4	3	7.5728	8.08295
4	4	8.38557	7.72358
4	5	9.19833	7.29002
4	6	10.0111	6.77281
4	7	10.8239	6.16242
4	8	11.6366	5.44928
4	9	12.4494	4.6238
5	0	1.88493	4.0202
5	1	2.71919	3.88497
5	2	3.55346	3.73821
5	3	4.38773	3.57689
5	4	5.222	3.38785
5	5	6.05627	3.15294
5	6	6.89054	2.85124
5	7	7.72481	2.46023
5	8	8.55908	1.95631
5	9	9.39335	1.31521
6	0	1.37958	3.3586
6	1	2.2172	3.2699
6	2	3.05481	3.16826
6	3	3.89242	3.07054
6	4	4.73004	2.97264
6	5	5.56765	2.86103
6	6	6.40526	2.71736
6	7	7.24288	2.52049
6	8	8.08049	2.2476
6	9	8.9181	1.87477
7	0	2.76715	5.1904
7	1	3.59558	5.00957
7	2	4.42401	4.79798
7	3	5.25244	4.54095
7	4	6.08087	4.22059
7	5	6.90931	3.81722
7	6	7.73774	3.31011
7	7	8.56617	2.67782
7	8	9.3946	1.8985
7	9	10.223	0.949934
8	0	2.19218	4.42201
8	1	3.02442	4.268
8	2	3.85665	4.09697
8	3	4.68889	3.8997
8	4	5.52112	3.66025
8	5	6.35336	3.35922
8	6	7.18559	2.97525
8	7	8.01783	2.48578
8	8	8.85007	1.86749
8	9	9.6823	1.0965
9	0	1.63249	3.69123
9	1	2.46843	3.57586
9	2	3.30437	3.4506
9	3	4.14031	3.3204
9	4	4.97625	3.17575
9	5	5.81219	3.00034
9	6	6.64813	2.7742
9	7	7.48407	2.47524
9	8	8.32001	2.08005
9	9	9.15595	1.56436
10	0	3.13638	5.70047
10	1	3.96237	5.50598
10	2	4.78836	5.27241
10	3	5.61434	4.98406
10	4	6.44033	4.62318
10	5	7.26632	4.17085
10	6	8.09231	3.60743
10	7	8.91829	2.9128
10	8	9.74428	2.06653
10	9	10.5703	1.04794
11	0	5.20121	8.927
11	1	6.01353	8.73807
11	2	6.82585	8.50373
11	3	7.63817	8.21525
11	4	8.4505	7.86374
11	5	9.26282	7.4402
11	6	10.0751	6.93556
11	7	10.8875	6.34068
11	8	11.6998	5.6464
11	9	12.5121	4.84352
12	0	4.31091	7.441
12	1	5.12913	7.22629
12	2	5.94734	6.95925
12	3	6.76555	6.62675
12	4	7.58377	6.21515
12	5	8.40198	5.71049
12	6	9.2202	5.09863
12	7	10.0384	4.36524
12	8	10.8566	3.49591
12	9	11.6748	2.47616
13	0	3.46932	6.17398
13	1	4.2931	5.96958
13	2	5.11688	5.71999
13	3	5.94067	5.40957
13	4	6.76445	5.02131
13	5	7.58823	4.53739
13	6	8.41202	3.93947
13	7	9.2358	3.20889
13	8	10.0596	2.32672
13	9	10.8834	1.2739
14	0	5.71633	9.88099
14	1	6.52524	9.73165
14	2	7.33416	9.5476
14	3	8.14307	9.32298
14	4	8.95198	9.05185
14	5	9.7609	8.72821
14	6	10.5698	8.34606
14	7	11.3787	7.89933
14	8	12.1876	7.38195
14	9	12.9965	6.78783
15	0	2.20117	4.43383
15	1	3.03335	4.27933
15	2	3.86552	4.10762
15	3	4.6977	3.90934
15	4	5.52987	3.66847
15	5	6.36205	3.36562
15	6	7.19423	2.97941
15	7	8.0264	2.4873
15	8	8.85858	1.86595
15	9	9.69075	1.09153
16	0	1.66335	3.7315
16	1	2.49908	3.61341
16	2	3.33482	3.48543
16	3	4.17055	3.35135
16	4	5.00629	3.20115
16	5	5.84202	3.01824
16	6	6.67776	2.78249
16	7	7.51349	2.47175
16	8	8.34923	2.06256
16	9	9.18496	1.53062
17	0	3.16541	5.7412
17	1	3.9912	5.54576
17	2	4.817	5.31064
17	3	5.64279	5.02011
17	4	6.46859	4.65648
17	5	7.29438	4.20091
17	6	8.12018	3.63386
17	7	8.94597	2.93532
17	8	9.77177	2.08499
17	9	10.5976	1.06234
18	0	5.21972	8.95993
18	1	6.03192	8.77208
18	2	6.84412	8.53912
18	3	7.65632	8.25241
18	4	8.46852	7.90318
18	5	9.28072	7.48254
18	6	10.0929	6.98152
18	7	10.9051	6.39109
18	8	11.7173	5.70221
18	9	12.5295	4.90579
19	0	1.94446	4.09779
19	1	2.77833	3.95855
19	2	3.61221	3.80694
19	3	4.44608	3.63848
19	4	5.27996	3.43934
19	5	6.11383	3.19106
19	6	6.94771	2.87258
19	7	7.78158	2.46131
19	8	8.61546	1.93369
19	9	9.44933	1.26549
20	0	1.42587	3.41994
20	1	2.26317	3.32568
20	2	3.10048	3.21952
20	3	3.93779	3.11576
20	4	4.7751	3.00915
20	5	5.6124	2.88557
20	6	6.44971	2.72632
20	7	7.28702	2.51004
20	8	8.12432	2.21377
20	9	8.96163	1.81349
Max output gas-rate
i	j	qijmax
1	1	10.93
1	2	8.70304
1	3	6.7493
1	4	12.4494
1	7	5.56728
1	10	6.81281
1	11	12.5121
1	12	9.97821
1	13	7.75107
1	14	12.9965
1	17	6.89869
1	18	12.5295
2	1	11.468
2	2	9.36454
2	3	7.7212
2	4	12.4494
2	7	6.89095
2	8	4.94449
2	10	7.77164
2	11	12.5121
2	12	10.5458
2	13	8.53979
2	14	12.9965
2	15	4.98508
2	17	7.84013
2	18	12.5295
3	1	11.9731
3	2	9.94598
3	3	8.49789
3	4	12.4494
3	5	5.77733
3	7	7.84076
3	8	6.63022
3	9	4.65419
3	10	8.53935
3	11	12.5121
3	12	11.0688
3	13	9.21033
3	14	12.9965
3	15	6.65109
3	16	4.83755
3	17	8.59586
3	18	12.5295
3	19	5.97807
4	1	10.6081
4	2	8.27056
4	3	6.08493
4	4	12.3309
4	10	6.16354
4	11	12.5121
4	12	9.61572
4	13	7.23633
4	14	12.9965
4	17	6.26958
4	18	12.5295
5	1	11.9859
5	2	10.9635
5	3	9.759
5	4	12.4494
5	5	8.4695
5	6	8.61335
5	7	9.27562
5	8	8.65768
5	9	8.43289
5	10	9.78978
5	11	12.5121
5	12	11.6748
5	13	10.3071
5	14	12.9965
5	15	8.66509
5	16	8.43115
5	17	9.83199
5	18	12.5295
5	19	8.49419
5	20	8.5497
6	1	11.9859
6	2	11.2233
6	3	10.2418
6	4	12.4494
6	5	9.26093
6	6	8.9181
6	7	9.81514
6	8	9.33637
6	9	9.15595
6	10	10.271
6	11	12.5121
6	12	11.6748
6	13	10.7714
6	14	12.9965
6	15	9.34104
6	16	9.18496
6	17	10.3112
6	18	12.5295
6	19	9.26029
6	20	8.96163
7	1	11.9859
7	2	10.2372
7	3	8.87684
7	4	12.4494
7	5	6.71641
7	6	5.16853
7	7	8.25645
7	8	7.28938
7	9	6.13058
7	10	8.91662
7	11	12.5121
7	12	11.3234
7	13	9.51097
7	14	12.9965
7	15	7.30448
7	16	6.21081
7	17	8.96647
7	18	12.5295
7	19	6.83869
7	20	5.41837
8	1	11.9859
8	2	10.7059
8	3	9.44052
8	4	12.4494
8	5	7.91928
8	6	7.78839
8	7	8.92234
8	8	8.21034
8	9	7.76431
8	10	9.47467
8	11	12.5121
8	12	11.6748
8	13	10.0446
8	14	12.9965
8	15	8.21998
8	16	7.77694
8	17	9.52144
8	18	12.5295
8	19	7.96894
8	20	7.75977
9	1	11.9859
9	2	11.1874
9	3	9.99391
9	4	12.4494
9	5	8.86441
9	6	8.9181
9	7	9.54903
9	8	9.00746
9	9	8.90094
9	10	10.0239
9	11	12.5121
9	12	11.6748
9	13	10.533
9	14	12.9965
9	15	9.01362
9	16	8.8848
9	17	10.0651
9	18	12.5295
9	19	8.88004
9	20	8.96163
10	1	11.957
10	2	9.92866
10	3	8.47535
10	4	12.4494
10	5	5.7103
10	7	7.81603
10	8	6.58931
10	9	4.54511
10	10	8.51691
10	11	12.5121
10	12	11.0537
10	13	9.18904
10	14	12.9965
10	15	6.61042
10	16	4.73253
10	17	8.57355
10	18	12.5295
10	19	5.91468
11	1	10.5664
11	2	8.2145
11	3	5.98795
11	4	12.2895
11	10	6.06714
11	11	12.5121
11	12	9.56872
11	13	7.16463
11	14	12.9965
11	17	6.17392
11	18	12.5295
12	1	11.1604
12	2	8.96837
12	3	7.17632
12	4	12.4494
12	7	6.15056
12	10	7.23746
12	11	12.5121
12	12	10.2065
12	13	8.07146
12	14	12.9965
12	17	7.31513
12	18	12.5295
13	1	11.7152
13	2	9.66732
13	3	8.13529
13	4	12.4494
13	5	4.57233
13	7	7.37025
13	8	5.86722
13	10	8.17836
13	11	12.5121
13	12	10.8198
13	13	8.86802
13	14	12.9965
13	15	5.89647
13	17	8.23697
13	18	12.5295
13	19	4.87915
14	1	10.2405
14	2	7.76861
14	3	5.18925
14	4	11.9826
14	10	5.28836
14	11	12.2548
14	12	9.22105
14	13	6.60203
14	14	12.9965
14	17	5.42178
14	18	12.3336
15	1	11.9859
15	2	10.6985
15	3	9.43129
15	4	12.4494
15	5	7.90368
15	6	7.75946
15	7	8.91232
15	8	8.19766
15	9	7.74437
15	10	9.46547
15	11	12.5121
15	12	11.6748
15	13	10.0358
15	14	12.9965
15	15	8.20736
15	16	7.75769
15	17	9.51228
15	18	12.5295
15	19	7.95404
15	20	7.73313
16	1	11.9859
16	2	11.1594
16	3	9.96455
16	4	12.4494
16	5	8.81745
16	6	8.9181
16	7	9.51751
16	8	8.9685
16	9	8.84244
16	10	9.99466
16	11	12.5121
16	12	11.6748
16	13	10.5048
16	14	12.9965
16	15	8.97483
16	16	8.82809
16	17	10.036
16	18	12.5295
16	19	8.835
16	20	8.96163
17	1	11.9354
17	2	9.90526
17	3	8.4449
17	4	12.4494
17	5	5.61978
17	7	7.78263
17	8	6.53407
17	9	4.39781
17	10	8.4866
17	11	12.5121
17	12	11.0332
17	13	9.1603
17	14	12.9965
17	15	6.5555
17	16	4.5907
17	17	8.54341
17	18	12.5295
17	19	5.82908
18	1	10.5549
18	2	8.19903
18	3	5.9612
18	4	12.278
18	10	6.04054
18	11	12.5121
18	12	9.55576
18	13	7.14485
18	14	12.9965
18	17	6.14754
18	18	12.5295
19	1	11.9859
19	2	10.9124
19	3	9.7015
19	4	12.4494
19	5	8.36027
19	6	8.46512
19	7	9.20549
19	8	8.56887
19	9	8.32594
19	10	9.73465
19	11	12.5121
19	12	11.6748
19	13	10.2555
19	14	12.9965
19	15	8.57673
19	16	8.32097
19	17	9.77871
19	18	12.5295
19	19	8.38992
19	20	8.41168
20	1	11.9859
20	2	11.2233
20	3	10.1955
20	4	12.4494
20	5	9.18679
20	6	8.9181
20	7	9.76538
20	8	9.27487
20	9	9.15595
20	10	10.2248
20	11	12.5121
20	12	11.6748
20	13	10.7268
20	14	12.9965
20	15	9.27982
20	16	9.18496
20	17	10.2652
20	18	12.5295
20	19	9.1892
20	20	8.96163
21	1	11.9859
21	2	10.1629
21	3	8.78019
21	4	12.4494
21	5	6.49264
21	6	4.53758
21	7	8.15042
21	8	7.1425
21	9	5.83146
21	10	8.82039
21	11	12.5121
21	12	11.2584
21	13	9.43541
21	14	12.9965
21	15	7.16036
21	16	5.92394
21	17	8.87526
21	18	12.5295
21	19	6.62682
21	20	4.87007
22	1	10.8252
22	2	8.56219
22	3	6.55499
22	4	12.4494
22	7	5.29365
22	10	6.61959
22	11	12.5121
22	12	9.86015
22	13	7.60528
22	14	12.9965
22	17	6.70689
22	18	12.5295
23	1	11.3717
23	2	9.23999
23	3	7.5542
23	4	12.4494
23	7	6.65818
23	8	4.521
23	10	7.60549
23	11	12.5121
23	12	10.4391
23	13	8.41198
23	14	12.9965
23	15	4.57112
23	17	7.67507
23	18	12.5295
24	1	11.9859
24	2	11.2233
24	3	10.4072
24	4	12.4494
24	5	9.39335
24	6	8.9181
24	7	9.9927
24	8	9.55583
24	9	9.15595
24	10	10.4359
24	11	12.5121
24	12	11.6748
24	13	10.8834
24	14	12.9965
24	15	9.55951
24	16	9.18496
24	17	10.4754
24	18	12.5295
24	19	9.44933
24	20	8.96163
25	1	10.5115
25	2	8.14072
25	3	5.86034
25	4	12.2349
25	10	5.94028
25	11	12.5121
25	12	9.50689
25	13	7.07028
25	14	12.9965
25	17	6.04805
25	18	12.5295
26	1	11.1184
26	2	8.92181
26	3	7.09852
26	4	12.4494
26	7	6.05906
26	10	7.16009
26	11	12.5121
26	12	10.1666
26	13	8.01308
26	14	12.9965
26	17	7.24341
26	18	12.5295
27	1	11.6168
27	2	9.55715
27	3	7.97946
27	4	12.4494
27	5	4.00504
27	7	7.18103
27	8	5.547
27	10	8.0286
27	11	12.5121
27	12	10.7108
27	13	8.73741
27	14	12.9965
27	15	5.5782
27	17	8.09537
27	18	12.5295
27	19	4.38467
28	1	11.9859
28	2	10.1189
28	3	8.72292
28	4	12.4494
28	5	6.36005
28	6	4.12737
28	7	8.0876
28	8	7.03857
28	9	5.60852
28	10	8.76338
28	11	12.5121
28	12	11.22
28	13	9.39063
28	14	12.9965
28	15	7.05704
28	16	5.72852
28	17	8.81858
28	18	12.5295
28	19	6.50127
28	20	4.50861
29	1	10.7789
29	2	8.50003
29	3	6.46923
29	4	12.4494
29	7	5.15328
29	10	6.53431
29	11	12.5121
29	12	9.80805
29	13	7.5298
29	14	12.9965
29	17	6.62224
29	18	12.5295
30	1	11.9859
30	2	11.1114
30	3	9.91419
30	4	12.4494
30	5	8.7369
30	6	8.9181
30	7	9.46345
30	8	8.90169
30	9	8.74211
30	10	9.94447
30	11	12.5121
30	12	11.6748
30	13	10.4563
30	14	12.9965
30	15	8.90832
30	16	8.73085
30	17	9.98602
30	18	12.5295
30	19	8.75776
30	20	8.94873
31	1	11.8618
31	2	9.82579
31	3	8.34148
31	4	12.4494
31	5	5.31228
31	7	7.65227
31	8	6.34448
31	9	3.87046
31	10	8.38364
31	11	12.5121
31	12	10.9637
31	13	9.06267
31	14	12.9965
31	15	6.36893
31	16	4.10151
31	17	8.44106
31	18	12.5295
31	19	5.53828
32	1	11.9859
32	2	10.3828
32	3	9.03601
32	4	12.4494
32	5	7.09456
32	6	6.18221
32	7	8.46424
32	8	7.55903
32	9	6.70009
32	10	9.07171
32	11	12.5121
32	12	11.4506
32	13	9.65907
32	14	12.9965
32	15	7.57267
32	16	6.75004
32	17	9.12049
32	18	12.5295
32	19	7.18484
32	20	6.29567
33	1	11.9859
33	2	10.8539
33	3	9.62756
33	4	12.4494
33	5	8.23533
33	6	8.29557
33	7	9.12527
33	8	8.46729
33	9	8.16811
33	10	9.66099
33	11	12.5121
33	12	11.6748
33	13	10.1964
33	14	12.9965
33	15	8.47565
33	16	8.16683
33	17	9.70683
33	18	12.5295
33	19	8.27064
33	20	8.25381
34	1	11.9859
34	2	11.2233
34	3	10.1256
34	4	12.4494
34	5	9.07504
34	6	8.9181
34	7	9.69039
34	8	9.18218
34	9	9.15595
34	10	10.1552
34	11	12.5121
34	12	11.6748
34	13	10.6597
34	14	12.9965
34	15	9.18755
34	16	9.1391
34	17	10.1959
34	18	12.5295
34	19	9.08203
34	20	8.96163
35	1	11.9859
35	2	10.0902
35	3	8.6856
35	4	12.4494
35	5	6.27365
35	6	3.86
35	7	8.04666
35	8	6.97085
35	9	5.45962
35	10	8.72622
35	11	12.5121
35	12	11.1949
35	13	9.36146
35	14	12.9965
35	15	6.98971
35	16	5.58576
35	17	8.78164
35	18	12.5295
35	19	6.41947
35	20	4.26321
36	1	11.9859
36	2	10.6117
36	3	9.32157
36	4	12.4494
36	5	7.7164
36	6	7.41575
36	7	8.79329
36	8	8.04693
36	9	7.5075
36	10	9.35617
36	11	12.5121
36	12	11.6748
36	13	9.93123
36	14	12.9965
36	15	8.05738
36	16	7.52898
36	17	9.40353
36	18	12.5295
36	19	7.77579
36	20	7.41666
37	1	11.9859
37	2	11.0802
37	3	9.88146
37	4	12.4494
37	5	8.68454
37	6	8.9181
37	7	9.42831
37	8	8.85826
37	9	8.67688
37	10	9.91184
37	11	12.5121
37	12	11.6748
37	13	10.4249
37	14	12.9965
37	15	8.86508
37	16	8.66763
37	17	9.95353
37	18	12.5295
37	19	8.70754
37	20	8.86456
38	1	11.8397
38	2	9.8019
38	3	8.31041
38	4	12.4494
38	5	5.21937
38	7	7.60976
38	8	6.27255
38	9	3.70342
38	10	8.3527
38	11	12.5121
38	12	10.9429
38	13	9.03334
38	14	12.9965
38	15	6.29934
38	16	3.93934
38	17	8.4103
38	18	12.5295
38	19	5.4509
39	1	10.4364
39	2	8.03983
39	3	5.68582
39	4	12.1603
39	10	5.7668
39	11	12.4373
39	12	9.42233
39	13	6.94125
39	14	12.9965
39	17	5.87592
39	18	12.5176
40	1	11.0176
40	2	8.81003
40	3	6.91174
40	4	12.4494
40	7	5.79603
40	10	6.97435
40	11	12.5121
40	12	10.0709
40	13	7.87294
40	14	12.9965
40	17	7.05904
40	18	12.5295
41	1	11.5791
41	2	9.50841
41	3	7.9141
41	4	12.4494
41	7	7.10856
41	8	5.39948
41	10	7.96356
41	11	12.5121
41	12	10.669
41	13	8.6874
41	14	12.9965
41	15	5.43737
41	17	8.03077
41	18	12.5295
41	19	4.16509
42	1	11.9859
42	2	11.2233
42	3	10.5501
42	4	12.4494
42	5	9.39335
42	6	8.9181
42	7	10.1945
42	8	9.6823
42	9	9.15595
42	10	10.5703
42	11	12.5121
42	12	11.6748
42	13	10.8834
42	14	12.9965
42	15	9.69075
42	16	9.18496
42	17	10.5976
42	18	12.5295
42	19	9.44933
42	20	8.96163
43	1	11.9859
43	2	10.5758
43	3	9.27612
43	4	12.4494
43	5	7.61743
43	6	7.27336
43	7	8.74397
43	8	7.97571
43	9	7.38533
43	10	9.3109
43	11	12.5121
43	12	11.6472
43	13	9.88792
43	14	12.9965
43	15	7.98707
43	16	7.40913
43	17	9.35848
43	18	12.5295
43	19	7.68173
43	20	7.28502
44	1	11.2915
44	2	9.13627
44	3	7.41513
44	4	12.4494
44	7	6.46434
44	8	4.12283
44	10	7.46712
44	11	12.5121
44	12	10.3503
44	13	8.28195
44	14	12.9965
44	15	4.17501
44	17	7.53762
44	18	12.5295
45	1	11.801
45	2	9.76007
45	3	8.25598
45	4	12.4494
45	5	5.01826
45	7	7.53532
45	8	6.14656
45	10	8.29851
45	11	12.5121
45	12	10.9063
45	13	8.98195
45	14	12.9965
45	15	6.17411
45	17	8.35642
45	18	12.5295
45	19	5.29785
46	1	11.9859
46	2	10.3045
46	3	8.95245
46	4	12.4494
46	5	6.9126
46	6	5.68499
46	7	8.35249
46	8	7.41402
46	9	6.40156
46	10	8.98847
46	11	12.5121
46	12	11.3822
46	13	9.57943
46	14	12.9965
46	15	7.42845
46	16	6.47068
46	17	9.03766
46	18	12.5295
46	19	7.01192
46	20	5.84726
47	1	10.9912
47	2	8.78073
47	3	6.86279
47	4	12.4494
47	7	5.7271
47	10	6.92567
47	11	12.5121
47	12	10.0458
47	13	7.83622
47	14	12.9965
47	17	7.01072
47	18	12.5295
48	1	11.5299
48	2	9.44464
48	3	7.82861
48	4	12.4494
48	7	7.01378
48	8	5.19783
48	10	7.87851
48	11	12.5121
48	12	10.6144
48	13	8.62198
48	14	12.9965
48	15	5.23691
48	17	7.94628
48	18	12.5295
49	1	11.9859
49	2	11.2233
49	3	10.5501
49	4	12.4494
49	5	9.39335
49	6	8.9181
49	7	10.1635
49	8	9.6823
49	9	9.15595
49	10	10.5703
49	11	12.5121
49	12	11.6748
49	13	10.8834
49	14	12.9965
49	15	9.69075
49	16	9.18496
49	17	10.5976
49	18	12.5295
49	19	9.44933
49	20	8.96163
50	1	10.7015
50	2	8.39609
50	3	6.30205
50	4	12.4238
50	7	4.90158
50	10	6.37938
50	11	12.5121
50	12	9.72092
50	13	7.39686
50	14	12.9965
50	17	6.48068
50	18	12.5295
