7	16	10	
Compressors
j	cj		dj		qcmin	qcmax	a0	a1	a2	a3	a4	
1	8		3		5.3		13		8.369	-0.502034	0.0651919	-0.00497	0.81477	
2	6		5		4.2		12		7.11148	-0.602903	0.0680301	-0.00507334	0.766603	
3	10		1		3.8		10.8	5.30343	-0.309098	0.0401807	-0.00427144	0.324494	
4	4		7		2		9.8		3.49652	-1.21501	0.123612	-0.00741996	1.97865	
5	6		4		1		8.5		2.45413	-0.356522	0.0361532	-0.00363706	0.347968	
6	4.2		2.03	2.64	8.65	4.1899	-0.3789		0.0375		-0.0028		0.5832	
7	4.19	3.48	1.83	5.43	2.8493	-0.2794		0.0295		-0.0021		0.4508	
Wells
i	qw		pw		Ni
1	3		5		1 2 
2	4		5		1 2 
3	2		4		1 2 3 
4	4		3		1 2 3 4 
5	5		1.5		1 2 3 4 
6	2		1		1 2 3 4 
7	2.03	2.05	1 2 3 4 5 6 7 
8	1.01	1.63	1 2 3 4 5 6 7 
9	2.18	1.79	1 2 3 4 5 6 7 
10	2.78	1.48	1 2 3 4 5 6 7 
11	3.06	1.87	1 2 3 4 5 6 7 
12	2.01	0.92	1 2 3 4 5 6 7 
13	2.57	1.94	1 2 3 4 5 6 7 
14	1.69	1.07	1 2 3 4 5 6 7 
15	2.49	1.54	1 2 3 4 5 6 7 
16	2.17	1.35	1 2 3 4 5 6 7 
Pipeline drops
i	j	l
1	1	0.03
1	2	0.01
2	1	0.08
2	2	0.2
3	1	0.15
3	2	0.31
3	3	0.15
4	1	0.27
4	2	0.22
4	3	0.11
4	4	0.09
5	1	0.22
5	2	0.09
5	3	0.15
5	4	0.02
6	1	0.03
6	2	0.01
6	3	0.2
6	4	0.2
7	1	0.3
7	2	0.08
7	3	0.08
7	4	0.01
7	5	0.02
7	6	0.21
7	7	0.06
8	1	0.27
8	2	0.14
8	3	0.3
8	4	0.24
8	5	0.23
8	6	0.11
8	7	0.05
9	1	0.25
9	2	0.26
9	3	0.3
9	4	0.28
9	5	0.12
9	6	0.21
9	7	0.24
10	1	0.23
10	2	0.33
10	3	0.27
10	4	0.23
10	5	0.16
10	6	0.04
10	7	0.22
11	1	0.08
11	2	0.29
11	3	0.17
11	4	0.24
11	5	0
11	6	0.32
11	7	0
12	1	0.16
12	2	0.3
12	3	0.2
12	4	0.11
12	5	0.16
12	6	0.2
12	7	0.05
13	1	0.16
13	2	0.13
13	3	0.15
13	4	0.2
13	5	0.02
13	6	0.1
13	7	0.2
14	1	0.23
14	2	0.26
14	3	0.33
14	4	0.16
14	5	0.3
14	6	0.15
14	7	0.27
15	1	0.07
15	2	0.15
15	3	0.06
15	4	0.32
15	5	0.12
15	6	0.01
15	7	0.25
16	1	0.12
16	2	0.27
16	3	0.01
16	4	0.2
16	5	0
16	6	0.09
16	7	0.29
Service cost
i	j	c
1	1	0.24
1	2	0.22
2	1	0.28
2	2	0.08
3	1	0.26
3	2	0.24
3	3	0.23
4	1	0.23
4	2	0.15
4	3	0.21
4	4	0.3
5	1	0
5	2	0.15
5	3	0.18
5	4	0.11
6	1	0.18
6	2	0.14
6	3	0.15
6	4	0.1
7	1	0.16
7	2	0.01
7	3	0.07
7	4	0.12
7	5	0.04
7	6	0.13
7	7	0.02
8	1	0.21
8	2	0.23
8	3	0.29
8	4	0.12
8	5	0.02
8	6	0.11
8	7	0.2
9	1	0.29
9	2	0.17
9	3	0.29
9	4	0.15
9	5	0.26
9	6	0.07
9	7	0.07
10	1	0.19
10	2	0.22
10	3	0.04
10	4	0.12
10	5	0.02
10	6	0.27
10	7	0.25
11	1	0.29
11	2	0.15
11	3	0.12
11	4	0.3
11	5	0
11	6	0.23
11	7	0
12	1	0.06
12	2	0.26
12	3	0.07
12	4	0.21
12	5	0.29
12	6	0.13
12	7	0.05
13	1	0.01
13	2	0
13	3	0.25
13	4	0.27
13	5	0.22
13	6	0.06
13	7	0.07
14	1	0.2
14	2	0.12
14	3	0.03
14	4	0.14
14	5	0.17
14	6	0.09
14	7	0.19
15	1	0.22
15	2	0.27
15	3	0.28
15	4	0.28
15	5	0.23
15	6	0.11
15	7	0.25
16	1	0.03
16	2	0.21
16	3	0.2
16	4	0.14
16	5	0
16	6	0.16
16	7	0.09
Points
j	k	q	p
1	0	5.3	8.29917
1	1	6.15556	8.19306
1	2	7.01111	8.03629
1	3	7.86667	7.81259
1	4	8.72222	7.50498
1	5	9.57778	7.0961
1	6	10.4333	6.56825
1	7	11.2889	5.90353
1	8	12.1444	5.08388
1	9	13	4.09112
2	0	4.2	6.66733
2	1	5.06667	6.52534
2	2	5.93333	6.3539
2	3	6.8	6.13693
2	4	7.66667	5.85715
2	5	8.53333	5.49658
2	6	9.4	5.03673
2	7	10.2667	4.45882
2	8	11.1333	3.74382
2	9	12	2.87254
3	0	3.8	4.98369
3	1	4.57778	4.87845
3	2	5.35556	4.74447
3	3	6.13333	4.57118
3	4	6.91111	4.34753
3	5	7.68889	4.0622
3	6	8.46667	3.70366
3	7	9.24444	3.26028
3	8	10.0222	2.72031
3	9	10.8	2.07195
4	0	2	3.67536
4	1	2.86667	3.53042
4	2	3.73333	3.37333
4	3	4.6	3.20963
4	4	5.46667	3.02982
4	5	6.33333	2.81705
4	6	7.2	2.55035
4	7	8.06667	2.20636
4	8	8.93333	1.76016
4	9	9.8	1.1858
5	0	1	2.37132
5	1	1.83333	2.262
5	2	2.66667	2.14363
5	3	3.5	2.01661
5	4	4.33333	1.87462
5	5	5.16667	1.70857
5	6	6	1.50802
5	7	6.83333	1.26179
5	8	7.66667	0.958264
5	9	8.5	0.58553
6	0	2.64	4.15293
6	1	3.30778	4.09727
6	2	3.97556	4.03608
6	3	4.64333	3.96796
6	4	5.31111	3.89027
6	5	5.97889	3.79967
6	6	6.64667	3.69236
6	7	7.31444	3.56424
6	8	7.98222	3.41099
6	9	8.65	3.22815
7	0	1.83	2.89288
7	1	2.23	2.87821
7	2	2.63	2.86151
7	3	3.03	2.84345
7	4	3.43	2.82425
7	5	3.83	2.80389
7	6	4.23	2.78214
7	7	4.63	2.75867
7	8	5.03	2.73301
7	9	5.43	2.70467
Max output gas-rate
i	j	qijmax
1	1	12.1444
1	2	9.44009
2	1	12.1444
2	2	9.09229
3	1	12.1444
3	2	10.4471
3	3	7.44956
4	1	12.1444
4	2	11.1333
4	3	9.46091
4	4	5.17661
5	1	12.1444
5	2	11.1333
5	3	10.0222
5	4	8.93333
6	1	12.1444
6	2	11.1333
6	3	10.0222
6	4	8.93333
7	1	12.1444
7	2	11.1333
7	3	10.0222
7	4	8.35095
7	5	3.14974
7	6	7.98222
7	7	5.03
8	1	12.1444
8	2	11.1333
8	3	10.0222
8	4	8.71998
8	5	4.4067
8	6	7.98222
8	7	5.03
9	1	12.1444
9	2	11.1333
9	3	10.0222
9	4	8.33152
9	5	4.12569
9	6	7.98222
9	7	5.03
10	1	12.1444
10	2	11.1333
10	3	10.0222
10	4	8.93333
10	5	5.4516
10	6	7.98222
10	7	5.03
11	1	12.1444
11	2	11.1333
11	3	10.0222
11	4	8.25383
11	5	4.35652
11	6	7.98222
11	7	5.03
12	1	12.1444
12	2	11.1333
12	3	10.0222
12	4	8.93333
12	5	7.33244
12	6	7.98222
12	7	5.03
13	1	12.1444
13	2	11.1333
13	3	10.0222
13	4	8.19556
13	5	3.83225
13	6	7.98222
13	7	5.03
14	1	12.1444
14	2	11.1333
14	3	10.0222
14	4	8.93333
14	5	6.46712
14	6	7.98222
14	7	5.03
15	1	12.1444
15	2	11.1333
15	3	10.0222
15	4	8.73941
15	5	5.36849
15	6	7.98222
15	7	5.03
16	1	12.1444
16	2	11.1333
16	3	10.0222
16	4	8.93333
16	5	6.53481
16	6	7.98222
16	7	5.03
