30	60	10	
Compressors
j	cj	dj	qcmin	qcmax	a0	a1	a2	a3	a4	
1	870	2	4.64169	11.9859	8.59222	-0.311798	0.0295567	-0.00391913	0.336829	
2	642	5	3.83075	11.2233	7.24931	-0.46145	0.0456701	-0.00530553	0.540411	
3	2013	5	3.11499	10.5501	6.06401	-0.611516	0.0630832	-0.00637361	0.771856	
4	1862	1	5.13451	12.4494	9.40834	-0.229808	0.0212587	-0.00302352	0.23682	
5	1384	2	1.88493	9.39335	4.02703	-0.919648	0.102778	-0.00755541	1.33278	
6	404	1	1.37958	8.9181	3.19018	-1.0694	0.123983	-0.00763862	1.64702	
7	2150	6	2.76715	10.223	5.48799	-0.691578	0.0728874	-0.00681146	0.906517	
8	960	1	2.19218	9.6823	4.53584	-0.835782	0.0914489	-0.00736847	1.16869	
9	1871	3	1.63249	9.15595	3.609	-0.992512	0.112939	-0.00763603	1.48227	
10	943	7	3.13638	10.5703	6.09944	-0.606753	0.0625112	-0.00634466	0.76409	
11	257	2	5.20121	12.5121	9.51878	-0.219179	0.0202104	-0.00290036	0.224452	
12	571	5	4.31091	11.6748	8.04445	-0.37048	0.0357261	-0.004501	0.413417	
13	1350	7	3.46932	10.8834	6.65077	-0.534909	0.0540368	-0.00586867	0.650289	
14	1608	2	5.71633	12.9965	10.3718	-0.140539	0.0126506	-0.0019389	0.137212	
15	1326	4	2.20117	9.69075	4.55072	-0.833404	0.0911334	-0.0073617	1.16417	
16	416	7	1.66335	9.18496	3.66009	-0.983405	0.111653	-0.00763011	1.46323	
17	376	1	3.16541	10.5976	6.1475	-0.600321	0.0617408	-0.00630506	0.753646	
18	1258	4	5.21972	12.5295	9.54944	-0.216247	0.0199223	-0.0028661	0.221065	
19	1793	4	1.94446	9.44933	4.12561	-0.902999	0.100497	-0.00752631	1.29953	
20	858	2	1.42587	8.96163	3.26683	-1.05503	0.121893	-0.00764457	1.61567	
21	632	4	2.8538	10.3045	5.63149	-0.671158	0.0703528	-0.00670851	0.871432	
22	1817	4	4.79811	12.133	8.85125	-0.285096	0.0268131	-0.00363803	0.303362	
23	735	1	3.97766	11.3614	7.49259	-0.43285	0.042494	-0.00506537	0.499402	
24	517	5	1.21802	8.76616	2.92263	-1.12071	0.131536	-0.00759324	1.76093	
25	637	7	5.29	12.5956	9.66582	-0.205192	0.0188406	-0.00273583	0.208387	
26	1568	4	4.36989	11.7303	8.14212	-0.359788	0.0345878	-0.00439866	0.399151	
27	1510	2	3.61048	11.0161	6.88454	-0.50568	0.0506716	-0.00565386	0.605783	
28	475	2	2.9058	10.3534	5.7176	-0.659058	0.0688619	-0.00664469	0.850881	
29	482	3	4.86837	12.1991	8.96761	-0.273311	0.0256148	-0.00351072	0.288867	
30	1494	2	1.71672	9.23516	3.74847	-0.967785	0.109457	-0.00761719	1.43082	
Wells
i	qw	pw	Ni
1	4.03317	1.65379	1 2 3 4 5 6 7 8 9 10 11 12 13 14 15 16 17 18 19 20 21 22 23 24 25 26 27 28 29 30 
2	3.45176	1.29525	1 2 3 4 5 6 7 8 9 10 11 12 13 14 15 16 17 18 19 20 21 22 23 24 25 26 27 28 29 30 
3	3.01581	1.02642	1 2 3 4 5 6 7 8 9 10 11 12 13 14 15 16 17 18 19 20 21 22 23 24 25 26 27 28 29 30 
4	4.44321	1.90664	1 2 3 4 5 6 7 8 9 10 11 12 13 14 15 16 17 18 19 20 21 22 23 24 25 26 27 28 29 30 
5	2.39477	0.643443	1 2 3 4 5 6 7 8 9 10 11 12 13 14 15 16 17 18 19 20 21 22 23 24 25 26 27 28 29 30 
6	2.1769	0.50909	1 2 3 4 5 6 7 8 9 10 11 12 13 14 15 16 17 18 19 20 21 22 23 24 25 26 27 28 29 30 
7	2.82543	0.909014	1 2 3 4 5 6 7 8 9 10 11 12 13 14 15 16 17 18 19 20 21 22 23 24 25 26 27 28 29 30 
8	2.53696	0.731128	1 2 3 4 5 6 7 8 9 10 11 12 13 14 15 16 17 18 19 20 21 22 23 24 25 26 27 28 29 30 
9	2.28357	0.57487	1 2 3 4 5 6 7 8 9 10 11 12 13 14 15 16 17 18 19 20 21 22 23 24 25 26 27 28 29 30 
10	3.02795	1.0339	1 2 3 4 5 6 7 8 9 10 11 12 13 14 15 16 17 18 19 20 21 22 23 24 25 26 27 28 29 30 
11	4.50255	1.94324	1 2 3 4 5 6 7 8 9 10 11 12 13 14 15 16 17 18 19 20 21 22 23 24 25 26 27 28 29 30 
12	3.78329	1.4997	1 2 3 4 5 6 7 8 9 10 11 12 13 14 15 16 17 18 19 20 21 22 23 24 25 26 27 28 29 30 
13	3.22365	1.15459	1 2 3 4 5 6 7 8 9 10 11 12 13 14 15 16 17 18 19 20 21 22 23 24 25 26 27 28 29 30 
14	4.99624	2.24768	1 2 3 4 5 6 7 8 9 10 11 12 13 14 15 16 17 18 19 20 21 22 23 24 25 26 27 28 29 30 
15	2.54124	0.733767	1 2 3 4 5 6 7 8 9 10 11 12 13 14 15 16 17 18 19 20 21 22 23 24 25 26 27 28 29 30 
16	2.2969	0.58309	1 2 3 4 5 6 7 8 9 10 11 12 13 14 15 16 17 18 19 20 21 22 23 24 25 26 27 28 29 30 
17	3.04449	1.0441	1 2 3 4 5 6 7 8 9 10 11 12 13 14 15 16 17 18 19 20 21 22 23 24 25 26 27 28 29 30 
18	4.5192	1.95351	1 2 3 4 5 6 7 8 9 10 11 12 13 14 15 16 17 18 19 20 21 22 23 24 25 26 27 28 29 30 
19	2.42172	0.660059	1 2 3 4 5 6 7 8 9 10 11 12 13 14 15 16 17 18 19 20 21 22 23 24 25 26 27 28 29 30 
20	2.19608	0.520917	1 2 3 4 5 6 7 8 9 10 11 12 13 14 15 16 17 18 19 20 21 22 23 24 25 26 27 28 29 30 
21	2.87166	0.937526	1 2 3 4 5 6 7 8 9 10 11 12 13 14 15 16 17 18 19 20 21 22 23 24 25 26 27 28 29 30 
22	4.15814	1.73086	1 2 3 4 5 6 7 8 9 10 11 12 13 14 15 16 17 18 19 20 21 22 23 24 25 26 27 28 29 30 
23	3.54955	1.35556	1 2 3 4 5 6 7 8 9 10 11 12 13 14 15 16 17 18 19 20 21 22 23 24 25 26 27 28 29 30 
24	2.1111	0.468514	1 2 3 4 5 6 7 8 9 10 11 12 13 14 15 16 17 18 19 20 21 22 23 24 25 26 27 28 29 30 
25	4.5831	1.99291	1 2 3 4 5 6 7 8 9 10 11 12 13 14 15 16 17 18 19 20 21 22 23 24 25 26 27 28 29 30 
26	3.82649	1.52633	1 2 3 4 5 6 7 8 9 10 11 12 13 14 15 16 17 18 19 20 21 22 23 24 25 26 27 28 29 30 
27	3.31071	1.20827	1 2 3 4 5 6 7 8 9 10 11 12 13 14 15 16 17 18 19 20 21 22 23 24 25 26 27 28 29 30 
28	2.89978	0.954866	1 2 3 4 5 6 7 8 9 10 11 12 13 14 15 16 17 18 19 20 21 22 23 24 25 26 27 28 29 30 
29	4.21579	1.76641	1 2 3 4 5 6 7 8 9 10 11 12 13 14 15 16 17 18 19 20 21 22 23 24 25 26 27 28 29 30 
30	2.32013	0.597415	1 2 3 4 5 6 7 8 9 10 11 12 13 14 15 16 17 18 19 20 21 22 23 24 25 26 27 28 29 30 
31	3.10208	1.07962	1 2 3 4 5 6 7 8 9 10 11 12 13 14 15 16 17 18 19 20 21 22 23 24 25 26 27 28 29 30 
32	2.739	0.855714	1 2 3 4 5 6 7 8 9 10 11 12 13 14 15 16 17 18 19 20 21 22 23 24 25 26 27 28 29 30 
33	2.45329	0.679531	1 2 3 4 5 6 7 8 9 10 11 12 13 14 15 16 17 18 19 20 21 22 23 24 25 26 27 28 29 30 
34	2.22564	0.539145	1 2 3 4 5 6 7 8 9 10 11 12 13 14 15 16 17 18 19 20 21 22 23 24 25 26 27 28 29 30 
35	2.9184	0.966349	1 2 3 4 5 6 7 8 9 10 11 12 13 14 15 16 17 18 19 20 21 22 23 24 25 26 27 28 29 30 
36	2.59321	0.765814	1 2 3 4 5 6 7 8 9 10 11 12 13 14 15 16 17 18 19 20 21 22 23 24 25 26 27 28 29 30 
37	2.33549	0.606883	1 2 3 4 5 6 7 8 9 10 11 12 13 14 15 16 17 18 19 20 21 22 23 24 25 26 27 28 29 30 
38	3.11981	1.09055	1 2 3 4 5 6 7 8 9 10 11 12 13 14 15 16 17 18 19 20 21 22 23 24 25 26 27 28 29 30 
39	4.69802	2.06378	1 2 3 4 5 6 7 8 9 10 11 12 13 14 15 16 17 18 19 20 21 22 23 24 25 26 27 28 29 30 
40	3.93433	1.59283	1 2 3 4 5 6 7 8 9 10 11 12 13 14 15 16 17 18 19 20 21 22 23 24 25 26 27 28 29 30 
41	3.34531	1.22961	1 2 3 4 5 6 7 8 9 10 11 12 13 14 15 16 17 18 19 20 21 22 23 24 25 26 27 28 29 30 
42	2.04099	0.425275	1 2 3 4 5 6 7 8 9 10 11 12 13 14 15 16 17 18 19 20 21 22 23 24 25 26 27 28 29 30 
43	2.61537	0.779477	1 2 3 4 5 6 7 8 9 10 11 12 13 14 15 16 17 18 19 20 21 22 23 24 25 26 27 28 29 30 
44	3.63532	1.40845	1 2 3 4 5 6 7 8 9 10 11 12 13 14 15 16 17 18 19 20 21 22 23 24 25 26 27 28 29 30 
45	3.15137	1.11001	1 2 3 4 5 6 7 8 9 10 11 12 13 14 15 16 17 18 19 20 21 22 23 24 25 26 27 28 29 30 
46	2.78481	0.883965	1 2 3 4 5 6 7 8 9 10 11 12 13 14 15 16 17 18 19 20 21 22 23 24 25 26 27 28 29 30 
47	3.9636	1.61089	1 2 3 4 5 6 7 8 9 10 11 12 13 14 15 16 17 18 19 20 21 22 23 24 25 26 27 28 29 30 
48	3.39167	1.25819	1 2 3 4 5 6 7 8 9 10 11 12 13 14 15 16 17 18 19 20 21 22 23 24 25 26 27 28 29 30 
49	2.05147	0.431737	1 2 3 4 5 6 7 8 9 10 11 12 13 14 15 16 17 18 19 20 21 22 23 24 25 26 27 28 29 30 
50	4.31586	1.82811	1 2 3 4 5 6 7 8 9 10 11 12 13 14 15 16 17 18 19 20 21 22 23 24 25 26 27 28 29 30 
51	3.67883	1.43528	1 2 3 4 5 6 7 8 9 10 11 12 13 14 15 16 17 18 19 20 21 22 23 24 25 26 27 28 29 30 
52	3.17234	1.12294	1 2 3 4 5 6 7 8 9 10 11 12 13 14 15 16 17 18 19 20 21 22 23 24 25 26 27 28 29 30 
53	4.83819	2.15022	1 2 3 4 5 6 7 8 9 10 11 12 13 14 15 16 17 18 19 20 21 22 23 24 25 26 27 28 29 30 
54	2.4929	0.703957	1 2 3 4 5 6 7 8 9 10 11 12 13 14 15 16 17 18 19 20 21 22 23 24 25 26 27 28 29 30 
55	2.26273	0.56202	1 2 3 4 5 6 7 8 9 10 11 12 13 14 15 16 17 18 19 20 21 22 23 24 25 26 27 28 29 30 
56	2.06444	0.439736	1 2 3 4 5 6 7 8 9 10 11 12 13 14 15 16 17 18 19 20 21 22 23 24 25 26 27 28 29 30 
57	4.412	1.8874	1 2 3 4 5 6 7 8 9 10 11 12 13 14 15 16 17 18 19 20 21 22 23 24 25 26 27 28 29 30 
58	3.70322	1.45032	1 2 3 4 5 6 7 8 9 10 11 12 13 14 15 16 17 18 19 20 21 22 23 24 25 26 27 28 29 30 
59	2.16455	0.50147	1 2 3 4 5 6 7 8 9 10 11 12 13 14 15 16 17 18 19 20 21 22 23 24 25 26 27 28 29 30 
60	4.89225	2.18355	1 2 3 4 5 6 7 8 9 10 11 12 13 14 15 16 17 18 19 20 21 22 23 24 25 26 27 28 29 30 
Pipeline drops
i	j	l
1	1	0.1
1	2	0.1
1	3	0.1
1	4	0.1
1	5	0.1
1	6	0.1
1	7	0.1
1	8	0.1
1	9	0.1
1	10	0.1
1	11	0.1
1	12	0.1
1	13	0.1
1	14	0.1
1	15	0.1
1	16	0.1
1	17	0.1
1	18	0.1
1	19	0.1
1	20	0.1
1	21	0.1
1	22	0.1
1	23	0.1
1	24	0.1
1	25	0.1
1	26	0.1
1	27	0.1
1	28	0.1
1	29	0.1
1	30	0.1
2	1	0.1
2	2	0.1
2	3	0.1
2	4	0.1
2	5	0.1
2	6	0.1
2	7	0.1
2	8	0.1
2	9	0.1
2	10	0.1
2	11	0.1
2	12	0.1
2	13	0.1
2	14	0.1
2	15	0.1
2	16	0.1
2	17	0.1
2	18	0.1
2	19	0.1
2	20	0.1
2	21	0.1
2	22	0.1
2	23	0.1
2	24	0.1
2	25	0.1
2	26	0.1
2	27	0.1
2	28	0.1
2	29	0.1
2	30	0.1
3	1	0.1
3	2	0.1
3	3	0.1
3	4	0.1
3	5	0.1
3	6	0.1
3	7	0.1
3	8	0.1
3	9	0.1
3	10	0.1
3	11	0.1
3	12	0.1
3	13	0.1
3	14	0.1
3	15	0.1
3	16	0.1
3	17	0.1
3	18	0.1
3	19	0.1
3	20	0.1
3	21	0.1
3	22	0.1
3	23	0.1
3	24	0.1
3	25	0.1
3	26	0.1
3	27	0.1
3	28	0.1
3	29	0.1
3	30	0.1
4	1	0.1
4	2	0.1
4	3	0.1
4	4	0.1
4	5	0.1
4	6	0.1
4	7	0.1
4	8	0.1
4	9	0.1
4	10	0.1
4	11	0.1
4	12	0.1
4	13	0.1
4	14	0.1
4	15	0.1
4	16	0.1
4	17	0.1
4	18	0.1
4	19	0.1
4	20	0.1
4	21	0.1
4	22	0.1
4	23	0.1
4	24	0.1
4	25	0.1
4	26	0.1
4	27	0.1
4	28	0.1
4	29	0.1
4	30	0.1
5	1	0.1
5	2	0.1
5	3	0.1
5	4	0.1
5	5	0.1
5	6	0.1
5	7	0.1
5	8	0.1
5	9	0.1
5	10	0.1
5	11	0.1
5	12	0.1
5	13	0.1
5	14	0.1
5	15	0.1
5	16	0.1
5	17	0.1
5	18	0.1
5	19	0.1
5	20	0.1
5	21	0.1
5	22	0.1
5	23	0.1
5	24	0.1
5	25	0.1
5	26	0.1
5	27	0.1
5	28	0.1
5	29	0.1
5	30	0.1
6	1	0.1
6	2	0.1
6	3	0.1
6	4	0.1
6	5	0.1
6	6	0.1
6	7	0.1
6	8	0.1
6	9	0.1
6	10	0.1
6	11	0.1
6	12	0.1
6	13	0.1
6	14	0.1
6	15	0.1
6	16	0.1
6	17	0.1
6	18	0.1
6	19	0.1
6	20	0.1
6	21	0.1
6	22	0.1
6	23	0.1
6	24	0.1
6	25	0.1
6	26	0.1
6	27	0.1
6	28	0.1
6	29	0.1
6	30	0.1
7	1	0.1
7	2	0.1
7	3	0.1
7	4	0.1
7	5	0.1
7	6	0.1
7	7	0.1
7	8	0.1
7	9	0.1
7	10	0.1
7	11	0.1
7	12	0.1
7	13	0.1
7	14	0.1
7	15	0.1
7	16	0.1
7	17	0.1
7	18	0.1
7	19	0.1
7	20	0.1
7	21	0.1
7	22	0.1
7	23	0.1
7	24	0.1
7	25	0.1
7	26	0.1
7	27	0.1
7	28	0.1
7	29	0.1
7	30	0.1
8	1	0.1
8	2	0.1
8	3	0.1
8	4	0.1
8	5	0.1
8	6	0.1
8	7	0.1
8	8	0.1
8	9	0.1
8	10	0.1
8	11	0.1
8	12	0.1
8	13	0.1
8	14	0.1
8	15	0.1
8	16	0.1
8	17	0.1
8	18	0.1
8	19	0.1
8	20	0.1
8	21	0.1
8	22	0.1
8	23	0.1
8	24	0.1
8	25	0.1
8	26	0.1
8	27	0.1
8	28	0.1
8	29	0.1
8	30	0.1
9	1	0.1
9	2	0.1
9	3	0.1
9	4	0.1
9	5	0.1
9	6	0.1
9	7	0.1
9	8	0.1
9	9	0.1
9	10	0.1
9	11	0.1
9	12	0.1
9	13	0.1
9	14	0.1
9	15	0.1
9	16	0.1
9	17	0.1
9	18	0.1
9	19	0.1
9	20	0.1
9	21	0.1
9	22	0.1
9	23	0.1
9	24	0.1
9	25	0.1
9	26	0.1
9	27	0.1
9	28	0.1
9	29	0.1
9	30	0.1
10	1	0.1
10	2	0.1
10	3	0.1
10	4	0.1
10	5	0.1
10	6	0.1
10	7	0.1
10	8	0.1
10	9	0.1
10	10	0.1
10	11	0.1
10	12	0.1
10	13	0.1
10	14	0.1
10	15	0.1
10	16	0.1
10	17	0.1
10	18	0.1
10	19	0.1
10	20	0.1
10	21	0.1
10	22	0.1
10	23	0.1
10	24	0.1
10	25	0.1
10	26	0.1
10	27	0.1
10	28	0.1
10	29	0.1
10	30	0.1
11	1	0.1
11	2	0.1
11	3	0.1
11	4	0.1
11	5	0.1
11	6	0.1
11	7	0.1
11	8	0.1
11	9	0.1
11	10	0.1
11	11	0.1
11	12	0.1
11	13	0.1
11	14	0.1
11	15	0.1
11	16	0.1
11	17	0.1
11	18	0.1
11	19	0.1
11	20	0.1
11	21	0.1
11	22	0.1
11	23	0.1
11	24	0.1
11	25	0.1
11	26	0.1
11	27	0.1
11	28	0.1
11	29	0.1
11	30	0.1
12	1	0.1
12	2	0.1
12	3	0.1
12	4	0.1
12	5	0.1
12	6	0.1
12	7	0.1
12	8	0.1
12	9	0.1
12	10	0.1
12	11	0.1
12	12	0.1
12	13	0.1
12	14	0.1
12	15	0.1
12	16	0.1
12	17	0.1
12	18	0.1
12	19	0.1
12	20	0.1
12	21	0.1
12	22	0.1
12	23	0.1
12	24	0.1
12	25	0.1
12	26	0.1
12	27	0.1
12	28	0.1
12	29	0.1
12	30	0.1
13	1	0.1
13	2	0.1
13	3	0.1
13	4	0.1
13	5	0.1
13	6	0.1
13	7	0.1
13	8	0.1
13	9	0.1
13	10	0.1
13	11	0.1
13	12	0.1
13	13	0.1
13	14	0.1
13	15	0.1
13	16	0.1
13	17	0.1
13	18	0.1
13	19	0.1
13	20	0.1
13	21	0.1
13	22	0.1
13	23	0.1
13	24	0.1
13	25	0.1
13	26	0.1
13	27	0.1
13	28	0.1
13	29	0.1
13	30	0.1
14	1	0.1
14	2	0.1
14	3	0.1
14	4	0.1
14	5	0.1
14	6	0.1
14	7	0.1
14	8	0.1
14	9	0.1
14	10	0.1
14	11	0.1
14	12	0.1
14	13	0.1
14	14	0.1
14	15	0.1
14	16	0.1
14	17	0.1
14	18	0.1
14	19	0.1
14	20	0.1
14	21	0.1
14	22	0.1
14	23	0.1
14	24	0.1
14	25	0.1
14	26	0.1
14	27	0.1
14	28	0.1
14	29	0.1
14	30	0.1
15	1	0.1
15	2	0.1
15	3	0.1
15	4	0.1
15	5	0.1
15	6	0.1
15	7	0.1
15	8	0.1
15	9	0.1
15	10	0.1
15	11	0.1
15	12	0.1
15	13	0.1
15	14	0.1
15	15	0.1
15	16	0.1
15	17	0.1
15	18	0.1
15	19	0.1
15	20	0.1
15	21	0.1
15	22	0.1
15	23	0.1
15	24	0.1
15	25	0.1
15	26	0.1
15	27	0.1
15	28	0.1
15	29	0.1
15	30	0.1
16	1	0.1
16	2	0.1
16	3	0.1
16	4	0.1
16	5	0.1
16	6	0.1
16	7	0.1
16	8	0.1
16	9	0.1
16	10	0.1
16	11	0.1
16	12	0.1
16	13	0.1
16	14	0.1
16	15	0.1
16	16	0.1
16	17	0.1
16	18	0.1
16	19	0.1
16	20	0.1
16	21	0.1
16	22	0.1
16	23	0.1
16	24	0.1
16	25	0.1
16	26	0.1
16	27	0.1
16	28	0.1
16	29	0.1
16	30	0.1
17	1	0.1
17	2	0.1
17	3	0.1
17	4	0.1
17	5	0.1
17	6	0.1
17	7	0.1
17	8	0.1
17	9	0.1
17	10	0.1
17	11	0.1
17	12	0.1
17	13	0.1
17	14	0.1
17	15	0.1
17	16	0.1
17	17	0.1
17	18	0.1
17	19	0.1
17	20	0.1
17	21	0.1
17	22	0.1
17	23	0.1
17	24	0.1
17	25	0.1
17	26	0.1
17	27	0.1
17	28	0.1
17	29	0.1
17	30	0.1
18	1	0.1
18	2	0.1
18	3	0.1
18	4	0.1
18	5	0.1
18	6	0.1
18	7	0.1
18	8	0.1
18	9	0.1
18	10	0.1
18	11	0.1
18	12	0.1
18	13	0.1
18	14	0.1
18	15	0.1
18	16	0.1
18	17	0.1
18	18	0.1
18	19	0.1
18	20	0.1
18	21	0.1
18	22	0.1
18	23	0.1
18	24	0.1
18	25	0.1
18	26	0.1
18	27	0.1
18	28	0.1
18	29	0.1
18	30	0.1
19	1	0.1
19	2	0.1
19	3	0.1
19	4	0.1
19	5	0.1
19	6	0.1
19	7	0.1
19	8	0.1
19	9	0.1
19	10	0.1
19	11	0.1
19	12	0.1
19	13	0.1
19	14	0.1
19	15	0.1
19	16	0.1
19	17	0.1
19	18	0.1
19	19	0.1
19	20	0.1
19	21	0.1
19	22	0.1
19	23	0.1
19	24	0.1
19	25	0.1
19	26	0.1
19	27	0.1
19	28	0.1
19	29	0.1
19	30	0.1
20	1	0.1
20	2	0.1
20	3	0.1
20	4	0.1
20	5	0.1
20	6	0.1
20	7	0.1
20	8	0.1
20	9	0.1
20	10	0.1
20	11	0.1
20	12	0.1
20	13	0.1
20	14	0.1
20	15	0.1
20	16	0.1
20	17	0.1
20	18	0.1
20	19	0.1
20	20	0.1
20	21	0.1
20	22	0.1
20	23	0.1
20	24	0.1
20	25	0.1
20	26	0.1
20	27	0.1
20	28	0.1
20	29	0.1
20	30	0.1
21	1	0.1
21	2	0.1
21	3	0.1
21	4	0.1
21	5	0.1
21	6	0.1
21	7	0.1
21	8	0.1
21	9	0.1
21	10	0.1
21	11	0.1
21	12	0.1
21	13	0.1
21	14	0.1
21	15	0.1
21	16	0.1
21	17	0.1
21	18	0.1
21	19	0.1
21	20	0.1
21	21	0.1
21	22	0.1
21	23	0.1
21	24	0.1
21	25	0.1
21	26	0.1
21	27	0.1
21	28	0.1
21	29	0.1
21	30	0.1
22	1	0.1
22	2	0.1
22	3	0.1
22	4	0.1
22	5	0.1
22	6	0.1
22	7	0.1
22	8	0.1
22	9	0.1
22	10	0.1
22	11	0.1
22	12	0.1
22	13	0.1
22	14	0.1
22	15	0.1
22	16	0.1
22	17	0.1
22	18	0.1
22	19	0.1
22	20	0.1
22	21	0.1
22	22	0.1
22	23	0.1
22	24	0.1
22	25	0.1
22	26	0.1
22	27	0.1
22	28	0.1
22	29	0.1
22	30	0.1
23	1	0.1
23	2	0.1
23	3	0.1
23	4	0.1
23	5	0.1
23	6	0.1
23	7	0.1
23	8	0.1
23	9	0.1
23	10	0.1
23	11	0.1
23	12	0.1
23	13	0.1
23	14	0.1
23	15	0.1
23	16	0.1
23	17	0.1
23	18	0.1
23	19	0.1
23	20	0.1
23	21	0.1
23	22	0.1
23	23	0.1
23	24	0.1
23	25	0.1
23	26	0.1
23	27	0.1
23	28	0.1
23	29	0.1
23	30	0.1
24	1	0.1
24	2	0.1
24	3	0.1
24	4	0.1
24	5	0.1
24	6	0.1
24	7	0.1
24	8	0.1
24	9	0.1
24	10	0.1
24	11	0.1
24	12	0.1
24	13	0.1
24	14	0.1
24	15	0.1
24	16	0.1
24	17	0.1
24	18	0.1
24	19	0.1
24	20	0.1
24	21	0.1
24	22	0.1
24	23	0.1
24	24	0.1
24	25	0.1
24	26	0.1
24	27	0.1
24	28	0.1
24	29	0.1
24	30	0.1
25	1	0.1
25	2	0.1
25	3	0.1
25	4	0.1
25	5	0.1
25	6	0.1
25	7	0.1
25	8	0.1
25	9	0.1
25	10	0.1
25	11	0.1
25	12	0.1
25	13	0.1
25	14	0.1
25	15	0.1
25	16	0.1
25	17	0.1
25	18	0.1
25	19	0.1
25	20	0.1
25	21	0.1
25	22	0.1
25	23	0.1
25	24	0.1
25	25	0.1
25	26	0.1
25	27	0.1
25	28	0.1
25	29	0.1
25	30	0.1
26	1	0.1
26	2	0.1
26	3	0.1
26	4	0.1
26	5	0.1
26	6	0.1
26	7	0.1
26	8	0.1
26	9	0.1
26	10	0.1
26	11	0.1
26	12	0.1
26	13	0.1
26	14	0.1
26	15	0.1
26	16	0.1
26	17	0.1
26	18	0.1
26	19	0.1
26	20	0.1
26	21	0.1
26	22	0.1
26	23	0.1
26	24	0.1
26	25	0.1
26	26	0.1
26	27	0.1
26	28	0.1
26	29	0.1
26	30	0.1
27	1	0.1
27	2	0.1
27	3	0.1
27	4	0.1
27	5	0.1
27	6	0.1
27	7	0.1
27	8	0.1
27	9	0.1
27	10	0.1
27	11	0.1
27	12	0.1
27	13	0.1
27	14	0.1
27	15	0.1
27	16	0.1
27	17	0.1
27	18	0.1
27	19	0.1
27	20	0.1
27	21	0.1
27	22	0.1
27	23	0.1
27	24	0.1
27	25	0.1
27	26	0.1
27	27	0.1
27	28	0.1
27	29	0.1
27	30	0.1
28	1	0.1
28	2	0.1
28	3	0.1
28	4	0.1
28	5	0.1
28	6	0.1
28	7	0.1
28	8	0.1
28	9	0.1
28	10	0.1
28	11	0.1
28	12	0.1
28	13	0.1
28	14	0.1
28	15	0.1
28	16	0.1
28	17	0.1
28	18	0.1
28	19	0.1
28	20	0.1
28	21	0.1
28	22	0.1
28	23	0.1
28	24	0.1
28	25	0.1
28	26	0.1
28	27	0.1
28	28	0.1
28	29	0.1
28	30	0.1
29	1	0.1
29	2	0.1
29	3	0.1
29	4	0.1
29	5	0.1
29	6	0.1
29	7	0.1
29	8	0.1
29	9	0.1
29	10	0.1
29	11	0.1
29	12	0.1
29	13	0.1
29	14	0.1
29	15	0.1
29	16	0.1
29	17	0.1
29	18	0.1
29	19	0.1
29	20	0.1
29	21	0.1
29	22	0.1
29	23	0.1
29	24	0.1
29	25	0.1
29	26	0.1
29	27	0.1
29	28	0.1
29	29	0.1
29	30	0.1
30	1	0.1
30	2	0.1
30	3	0.1
30	4	0.1
30	5	0.1
30	6	0.1
30	7	0.1
30	8	0.1
30	9	0.1
30	10	0.1
30	11	0.1
30	12	0.1
30	13	0.1
30	14	0.1
30	15	0.1
30	16	0.1
30	17	0.1
30	18	0.1
30	19	0.1
30	20	0.1
30	21	0.1
30	22	0.1
30	23	0.1
30	24	0.1
30	25	0.1
30	26	0.1
30	27	0.1
30	28	0.1
30	29	0.1
30	30	0.1
31	1	0.1
31	2	0.1
31	3	0.1
31	4	0.1
31	5	0.1
31	6	0.1
31	7	0.1
31	8	0.1
31	9	0.1
31	10	0.1
31	11	0.1
31	12	0.1
31	13	0.1
31	14	0.1
31	15	0.1
31	16	0.1
31	17	0.1
31	18	0.1
31	19	0.1
31	20	0.1
31	21	0.1
31	22	0.1
31	23	0.1
31	24	0.1
31	25	0.1
31	26	0.1
31	27	0.1
31	28	0.1
31	29	0.1
31	30	0.1
32	1	0.1
32	2	0.1
32	3	0.1
32	4	0.1
32	5	0.1
32	6	0.1
32	7	0.1
32	8	0.1
32	9	0.1
32	10	0.1
32	11	0.1
32	12	0.1
32	13	0.1
32	14	0.1
32	15	0.1
32	16	0.1
32	17	0.1
32	18	0.1
32	19	0.1
32	20	0.1
32	21	0.1
32	22	0.1
32	23	0.1
32	24	0.1
32	25	0.1
32	26	0.1
32	27	0.1
32	28	0.1
32	29	0.1
32	30	0.1
33	1	0.1
33	2	0.1
33	3	0.1
33	4	0.1
33	5	0.1
33	6	0.1
33	7	0.1
33	8	0.1
33	9	0.1
33	10	0.1
33	11	0.1
33	12	0.1
33	13	0.1
33	14	0.1
33	15	0.1
33	16	0.1
33	17	0.1
33	18	0.1
33	19	0.1
33	20	0.1
33	21	0.1
33	22	0.1
33	23	0.1
33	24	0.1
33	25	0.1
33	26	0.1
33	27	0.1
33	28	0.1
33	29	0.1
33	30	0.1
34	1	0.1
34	2	0.1
34	3	0.1
34	4	0.1
34	5	0.1
34	6	0.1
34	7	0.1
34	8	0.1
34	9	0.1
34	10	0.1
34	11	0.1
34	12	0.1
34	13	0.1
34	14	0.1
34	15	0.1
34	16	0.1
34	17	0.1
34	18	0.1
34	19	0.1
34	20	0.1
34	21	0.1
34	22	0.1
34	23	0.1
34	24	0.1
34	25	0.1
34	26	0.1
34	27	0.1
34	28	0.1
34	29	0.1
34	30	0.1
35	1	0.1
35	2	0.1
35	3	0.1
35	4	0.1
35	5	0.1
35	6	0.1
35	7	0.1
35	8	0.1
35	9	0.1
35	10	0.1
35	11	0.1
35	12	0.1
35	13	0.1
35	14	0.1
35	15	0.1
35	16	0.1
35	17	0.1
35	18	0.1
35	19	0.1
35	20	0.1
35	21	0.1
35	22	0.1
35	23	0.1
35	24	0.1
35	25	0.1
35	26	0.1
35	27	0.1
35	28	0.1
35	29	0.1
35	30	0.1
36	1	0.1
36	2	0.1
36	3	0.1
36	4	0.1
36	5	0.1
36	6	0.1
36	7	0.1
36	8	0.1
36	9	0.1
36	10	0.1
36	11	0.1
36	12	0.1
36	13	0.1
36	14	0.1
36	15	0.1
36	16	0.1
36	17	0.1
36	18	0.1
36	19	0.1
36	20	0.1
36	21	0.1
36	22	0.1
36	23	0.1
36	24	0.1
36	25	0.1
36	26	0.1
36	27	0.1
36	28	0.1
36	29	0.1
36	30	0.1
37	1	0.1
37	2	0.1
37	3	0.1
37	4	0.1
37	5	0.1
37	6	0.1
37	7	0.1
37	8	0.1
37	9	0.1
37	10	0.1
37	11	0.1
37	12	0.1
37	13	0.1
37	14	0.1
37	15	0.1
37	16	0.1
37	17	0.1
37	18	0.1
37	19	0.1
37	20	0.1
37	21	0.1
37	22	0.1
37	23	0.1
37	24	0.1
37	25	0.1
37	26	0.1
37	27	0.1
37	28	0.1
37	29	0.1
37	30	0.1
38	1	0.1
38	2	0.1
38	3	0.1
38	4	0.1
38	5	0.1
38	6	0.1
38	7	0.1
38	8	0.1
38	9	0.1
38	10	0.1
38	11	0.1
38	12	0.1
38	13	0.1
38	14	0.1
38	15	0.1
38	16	0.1
38	17	0.1
38	18	0.1
38	19	0.1
38	20	0.1
38	21	0.1
38	22	0.1
38	23	0.1
38	24	0.1
38	25	0.1
38	26	0.1
38	27	0.1
38	28	0.1
38	29	0.1
38	30	0.1
39	1	0.1
39	2	0.1
39	3	0.1
39	4	0.1
39	5	0.1
39	6	0.1
39	7	0.1
39	8	0.1
39	9	0.1
39	10	0.1
39	11	0.1
39	12	0.1
39	13	0.1
39	14	0.1
39	15	0.1
39	16	0.1
39	17	0.1
39	18	0.1
39	19	0.1
39	20	0.1
39	21	0.1
39	22	0.1
39	23	0.1
39	24	0.1
39	25	0.1
39	26	0.1
39	27	0.1
39	28	0.1
39	29	0.1
39	30	0.1
40	1	0.1
40	2	0.1
40	3	0.1
40	4	0.1
40	5	0.1
40	6	0.1
40	7	0.1
40	8	0.1
40	9	0.1
40	10	0.1
40	11	0.1
40	12	0.1
40	13	0.1
40	14	0.1
40	15	0.1
40	16	0.1
40	17	0.1
40	18	0.1
40	19	0.1
40	20	0.1
40	21	0.1
40	22	0.1
40	23	0.1
40	24	0.1
40	25	0.1
40	26	0.1
40	27	0.1
40	28	0.1
40	29	0.1
40	30	0.1
41	1	0.1
41	2	0.1
41	3	0.1
41	4	0.1
41	5	0.1
41	6	0.1
41	7	0.1
41	8	0.1
41	9	0.1
41	10	0.1
41	11	0.1
41	12	0.1
41	13	0.1
41	14	0.1
41	15	0.1
41	16	0.1
41	17	0.1
41	18	0.1
41	19	0.1
41	20	0.1
41	21	0.1
41	22	0.1
41	23	0.1
41	24	0.1
41	25	0.1
41	26	0.1
41	27	0.1
41	28	0.1
41	29	0.1
41	30	0.1
42	1	0.1
42	2	0.1
42	3	0.1
42	4	0.1
42	5	0.1
42	6	0.1
42	7	0.1
42	8	0.1
42	9	0.1
42	10	0.1
42	11	0.1
42	12	0.1
42	13	0.1
42	14	0.1
42	15	0.1
42	16	0.1
42	17	0.1
42	18	0.1
42	19	0.1
42	20	0.1
42	21	0.1
42	22	0.1
42	23	0.1
42	24	0.1
42	25	0.1
42	26	0.1
42	27	0.1
42	28	0.1
42	29	0.1
42	30	0.1
43	1	0.1
43	2	0.1
43	3	0.1
43	4	0.1
43	5	0.1
43	6	0.1
43	7	0.1
43	8	0.1
43	9	0.1
43	10	0.1
43	11	0.1
43	12	0.1
43	13	0.1
43	14	0.1
43	15	0.1
43	16	0.1
43	17	0.1
43	18	0.1
43	19	0.1
43	20	0.1
43	21	0.1
43	22	0.1
43	23	0.1
43	24	0.1
43	25	0.1
43	26	0.1
43	27	0.1
43	28	0.1
43	29	0.1
43	30	0.1
44	1	0.1
44	2	0.1
44	3	0.1
44	4	0.1
44	5	0.1
44	6	0.1
44	7	0.1
44	8	0.1
44	9	0.1
44	10	0.1
44	11	0.1
44	12	0.1
44	13	0.1
44	14	0.1
44	15	0.1
44	16	0.1
44	17	0.1
44	18	0.1
44	19	0.1
44	20	0.1
44	21	0.1
44	22	0.1
44	23	0.1
44	24	0.1
44	25	0.1
44	26	0.1
44	27	0.1
44	28	0.1
44	29	0.1
44	30	0.1
45	1	0.1
45	2	0.1
45	3	0.1
45	4	0.1
45	5	0.1
45	6	0.1
45	7	0.1
45	8	0.1
45	9	0.1
45	10	0.1
45	11	0.1
45	12	0.1
45	13	0.1
45	14	0.1
45	15	0.1
45	16	0.1
45	17	0.1
45	18	0.1
45	19	0.1
45	20	0.1
45	21	0.1
45	22	0.1
45	23	0.1
45	24	0.1
45	25	0.1
45	26	0.1
45	27	0.1
45	28	0.1
45	29	0.1
45	30	0.1
46	1	0.1
46	2	0.1
46	3	0.1
46	4	0.1
46	5	0.1
46	6	0.1
46	7	0.1
46	8	0.1
46	9	0.1
46	10	0.1
46	11	0.1
46	12	0.1
46	13	0.1
46	14	0.1
46	15	0.1
46	16	0.1
46	17	0.1
46	18	0.1
46	19	0.1
46	20	0.1
46	21	0.1
46	22	0.1
46	23	0.1
46	24	0.1
46	25	0.1
46	26	0.1
46	27	0.1
46	28	0.1
46	29	0.1
46	30	0.1
47	1	0.1
47	2	0.1
47	3	0.1
47	4	0.1
47	5	0.1
47	6	0.1
47	7	0.1
47	8	0.1
47	9	0.1
47	10	0.1
47	11	0.1
47	12	0.1
47	13	0.1
47	14	0.1
47	15	0.1
47	16	0.1
47	17	0.1
47	18	0.1
47	19	0.1
47	20	0.1
47	21	0.1
47	22	0.1
47	23	0.1
47	24	0.1
47	25	0.1
47	26	0.1
47	27	0.1
47	28	0.1
47	29	0.1
47	30	0.1
48	1	0.1
48	2	0.1
48	3	0.1
48	4	0.1
48	5	0.1
48	6	0.1
48	7	0.1
48	8	0.1
48	9	0.1
48	10	0.1
48	11	0.1
48	12	0.1
48	13	0.1
48	14	0.1
48	15	0.1
48	16	0.1
48	17	0.1
48	18	0.1
48	19	0.1
48	20	0.1
48	21	0.1
48	22	0.1
48	23	0.1
48	24	0.1
48	25	0.1
48	26	0.1
48	27	0.1
48	28	0.1
48	29	0.1
48	30	0.1
49	1	0.1
49	2	0.1
49	3	0.1
49	4	0.1
49	5	0.1
49	6	0.1
49	7	0.1
49	8	0.1
49	9	0.1
49	10	0.1
49	11	0.1
49	12	0.1
49	13	0.1
49	14	0.1
49	15	0.1
49	16	0.1
49	17	0.1
49	18	0.1
49	19	0.1
49	20	0.1
49	21	0.1
49	22	0.1
49	23	0.1
49	24	0.1
49	25	0.1
49	26	0.1
49	27	0.1
49	28	0.1
49	29	0.1
49	30	0.1
50	1	0.1
50	2	0.1
50	3	0.1
50	4	0.1
50	5	0.1
50	6	0.1
50	7	0.1
50	8	0.1
50	9	0.1
50	10	0.1
50	11	0.1
50	12	0.1
50	13	0.1
50	14	0.1
50	15	0.1
50	16	0.1
50	17	0.1
50	18	0.1
50	19	0.1
50	20	0.1
50	21	0.1
50	22	0.1
50	23	0.1
50	24	0.1
50	25	0.1
50	26	0.1
50	27	0.1
50	28	0.1
50	29	0.1
50	30	0.1
51	1	0.1
51	2	0.1
51	3	0.1
51	4	0.1
51	5	0.1
51	6	0.1
51	7	0.1
51	8	0.1
51	9	0.1
51	10	0.1
51	11	0.1
51	12	0.1
51	13	0.1
51	14	0.1
51	15	0.1
51	16	0.1
51	17	0.1
51	18	0.1
51	19	0.1
51	20	0.1
51	21	0.1
51	22	0.1
51	23	0.1
51	24	0.1
51	25	0.1
51	26	0.1
51	27	0.1
51	28	0.1
51	29	0.1
51	30	0.1
52	1	0.1
52	2	0.1
52	3	0.1
52	4	0.1
52	5	0.1
52	6	0.1
52	7	0.1
52	8	0.1
52	9	0.1
52	10	0.1
52	11	0.1
52	12	0.1
52	13	0.1
52	14	0.1
52	15	0.1
52	16	0.1
52	17	0.1
52	18	0.1
52	19	0.1
52	20	0.1
52	21	0.1
52	22	0.1
52	23	0.1
52	24	0.1
52	25	0.1
52	26	0.1
52	27	0.1
52	28	0.1
52	29	0.1
52	30	0.1
53	1	0.1
53	2	0.1
53	3	0.1
53	4	0.1
53	5	0.1
53	6	0.1
53	7	0.1
53	8	0.1
53	9	0.1
53	10	0.1
53	11	0.1
53	12	0.1
53	13	0.1
53	14	0.1
53	15	0.1
53	16	0.1
53	17	0.1
53	18	0.1
53	19	0.1
53	20	0.1
53	21	0.1
53	22	0.1
53	23	0.1
53	24	0.1
53	25	0.1
53	26	0.1
53	27	0.1
53	28	0.1
53	29	0.1
53	30	0.1
54	1	0.1
54	2	0.1
54	3	0.1
54	4	0.1
54	5	0.1
54	6	0.1
54	7	0.1
54	8	0.1
54	9	0.1
54	10	0.1
54	11	0.1
54	12	0.1
54	13	0.1
54	14	0.1
54	15	0.1
54	16	0.1
54	17	0.1
54	18	0.1
54	19	0.1
54	20	0.1
54	21	0.1
54	22	0.1
54	23	0.1
54	24	0.1
54	25	0.1
54	26	0.1
54	27	0.1
54	28	0.1
54	29	0.1
54	30	0.1
55	1	0.1
55	2	0.1
55	3	0.1
55	4	0.1
55	5	0.1
55	6	0.1
55	7	0.1
55	8	0.1
55	9	0.1
55	10	0.1
55	11	0.1
55	12	0.1
55	13	0.1
55	14	0.1
55	15	0.1
55	16	0.1
55	17	0.1
55	18	0.1
55	19	0.1
55	20	0.1
55	21	0.1
55	22	0.1
55	23	0.1
55	24	0.1
55	25	0.1
55	26	0.1
55	27	0.1
55	28	0.1
55	29	0.1
55	30	0.1
56	1	0.1
56	2	0.1
56	3	0.1
56	4	0.1
56	5	0.1
56	6	0.1
56	7	0.1
56	8	0.1
56	9	0.1
56	10	0.1
56	11	0.1
56	12	0.1
56	13	0.1
56	14	0.1
56	15	0.1
56	16	0.1
56	17	0.1
56	18	0.1
56	19	0.1
56	20	0.1
56	21	0.1
56	22	0.1
56	23	0.1
56	24	0.1
56	25	0.1
56	26	0.1
56	27	0.1
56	28	0.1
56	29	0.1
56	30	0.1
57	1	0.1
57	2	0.1
57	3	0.1
57	4	0.1
57	5	0.1
57	6	0.1
57	7	0.1
57	8	0.1
57	9	0.1
57	10	0.1
57	11	0.1
57	12	0.1
57	13	0.1
57	14	0.1
57	15	0.1
57	16	0.1
57	17	0.1
57	18	0.1
57	19	0.1
57	20	0.1
57	21	0.1
57	22	0.1
57	23	0.1
57	24	0.1
57	25	0.1
57	26	0.1
57	27	0.1
57	28	0.1
57	29	0.1
57	30	0.1
58	1	0.1
58	2	0.1
58	3	0.1
58	4	0.1
58	5	0.1
58	6	0.1
58	7	0.1
58	8	0.1
58	9	0.1
58	10	0.1
58	11	0.1
58	12	0.1
58	13	0.1
58	14	0.1
58	15	0.1
58	16	0.1
58	17	0.1
58	18	0.1
58	19	0.1
58	20	0.1
58	21	0.1
58	22	0.1
58	23	0.1
58	24	0.1
58	25	0.1
58	26	0.1
58	27	0.1
58	28	0.1
58	29	0.1
58	30	0.1
59	1	0.1
59	2	0.1
59	3	0.1
59	4	0.1
59	5	0.1
59	6	0.1
59	7	0.1
59	8	0.1
59	9	0.1
59	10	0.1
59	11	0.1
59	12	0.1
59	13	0.1
59	14	0.1
59	15	0.1
59	16	0.1
59	17	0.1
59	18	0.1
59	19	0.1
59	20	0.1
59	21	0.1
59	22	0.1
59	23	0.1
59	24	0.1
59	25	0.1
59	26	0.1
59	27	0.1
59	28	0.1
59	29	0.1
59	30	0.1
60	1	0.1
60	2	0.1
60	3	0.1
60	4	0.1
60	5	0.1
60	6	0.1
60	7	0.1
60	8	0.1
60	9	0.1
60	10	0.1
60	11	0.1
60	12	0.1
60	13	0.1
60	14	0.1
60	15	0.1
60	16	0.1
60	17	0.1
60	18	0.1
60	19	0.1
60	20	0.1
60	21	0.1
60	22	0.1
60	23	0.1
60	24	0.1
60	25	0.1
60	26	0.1
60	27	0.1
60	28	0.1
60	29	0.1
60	30	0.1
Service cost
i	j	c
1	1	83
1	2	40
1	3	24
1	4	19
1	5	44
1	6	70
1	7	51
1	8	10
1	9	7
1	10	43
1	11	11
1	12	83
1	13	78
1	14	74
1	15	40
1	16	63
1	17	18
1	18	50
1	19	85
1	20	23
1	21	87
1	22	65
1	23	5
1	24	51
1	25	46
1	26	23
1	27	55
1	28	30
1	29	68
1	30	22
2	1	19
2	2	15
2	3	45
2	4	87
2	5	37
2	6	95
2	7	56
2	8	11
2	9	18
2	10	58
2	11	61
2	12	38
2	13	44
2	14	96
2	15	33
2	16	89
2	17	14
2	18	25
2	19	30
2	20	10
2	21	67
2	22	6
2	23	80
2	24	93
2	25	0
2	26	90
2	27	29
2	28	16
2	29	55
2	30	18
3	1	72
3	2	82
3	3	53
3	4	66
3	5	69
3	6	57
3	7	89
3	8	90
3	9	16
3	10	57
3	11	25
3	12	35
3	13	27
3	14	0
3	15	42
3	16	5
3	17	35
3	18	50
3	19	31
3	20	96
3	21	29
3	22	19
3	23	45
3	24	58
3	25	91
3	26	77
3	27	31
3	28	29
3	29	74
3	30	16
4	1	32
4	2	54
4	3	62
4	4	60
4	5	2
4	6	83
4	7	96
4	8	1
4	9	94
4	10	24
4	11	48
4	12	25
4	13	9
4	14	75
4	15	80
4	16	45
4	17	15
4	18	69
4	19	33
4	20	58
4	21	68
4	22	17
4	23	14
4	24	99
4	25	7
4	26	15
4	27	86
4	28	40
4	29	99
4	30	57
5	1	86
5	2	87
5	3	41
5	4	84
5	5	6
5	6	43
5	7	79
5	8	35
5	9	30
5	10	61
5	11	64
5	12	96
5	13	9
5	14	98
5	15	82
5	16	66
5	17	9
5	18	32
5	19	16
5	20	76
5	21	65
5	22	33
5	23	22
5	24	36
5	25	42
5	26	63
5	27	42
5	28	89
5	29	67
5	30	77
6	1	76
6	2	15
6	3	84
6	4	33
6	5	90
6	6	88
6	7	59
6	8	34
6	9	18
6	10	98
6	11	36
6	12	72
6	13	12
6	14	86
6	15	97
6	16	28
6	17	29
6	18	54
6	19	10
6	20	64
6	21	53
6	22	44
6	23	53
6	24	10
6	25	14
6	26	2
6	27	34
6	28	17
6	29	34
6	30	75
7	1	72
7	2	45
7	3	9
7	4	98
7	5	95
7	6	2
7	7	31
7	8	72
7	9	63
7	10	52
7	11	78
7	12	48
7	13	37
7	14	60
7	15	47
7	16	53
7	17	41
7	18	32
7	19	6
7	20	36
7	21	94
7	22	84
7	23	77
7	24	20
7	25	7
7	26	45
7	27	90
7	28	72
7	29	69
7	30	60
8	1	66
8	2	47
8	3	75
8	4	72
8	5	17
8	6	57
8	7	59
8	8	84
8	9	66
8	10	75
8	11	44
8	12	36
8	13	40
8	14	69
8	15	20
8	16	45
8	17	77
8	18	34
8	19	10
8	20	95
8	21	46
8	22	65
8	23	80
8	24	78
8	25	90
8	26	82
8	27	22
8	28	6
8	29	19
8	30	7
9	1	90
9	2	81
9	3	23
9	4	58
9	5	87
9	6	51
9	7	94
9	8	99
9	9	27
9	10	11
9	11	47
9	12	63
9	13	16
9	14	38
9	15	11
9	16	49
9	17	33
9	18	38
9	19	8
9	20	49
9	21	5
9	22	71
9	23	54
9	24	50
9	25	99
9	26	73
9	27	42
9	28	36
9	29	77
9	30	84
10	1	91
10	2	72
10	3	99
10	4	63
10	5	84
10	6	42
10	7	54
10	8	44
10	9	6
10	10	83
10	11	61
10	12	58
10	13	73
10	14	33
10	15	75
10	16	32
10	17	18
10	18	82
10	19	82
10	20	43
10	21	47
10	22	95
10	23	66
10	24	79
10	25	8
10	26	52
10	27	93
10	28	40
10	29	32
10	30	19
11	1	41
11	2	81
11	3	24
11	4	36
11	5	60
11	6	80
11	7	29
11	8	10
11	9	57
11	10	79
11	11	92
11	12	24
11	13	32
11	14	40
11	15	92
11	16	11
11	17	9
11	18	5
11	19	14
11	20	63
11	21	38
11	22	55
11	23	96
11	24	49
11	25	68
11	26	6
11	27	59
11	28	90
11	29	15
11	30	92
12	1	6
12	2	97
12	3	64
12	4	22
12	5	55
12	6	75
12	7	96
12	8	99
12	9	36
12	10	55
12	11	13
12	12	51
12	13	67
12	14	91
12	15	24
12	16	16
12	17	99
12	18	53
12	19	86
12	20	65
12	21	74
12	22	95
12	23	29
12	24	61
12	25	57
12	26	69
12	27	21
12	28	5
12	29	33
12	30	34
13	1	29
13	2	83
13	3	60
13	4	66
13	5	87
13	6	46
13	7	47
13	8	68
13	9	92
13	10	79
13	11	80
13	12	50
13	13	78
13	14	23
13	15	18
13	16	10
13	17	31
13	18	87
13	19	39
13	20	46
13	21	63
13	22	33
13	23	97
13	24	85
13	25	46
13	26	43
13	27	31
13	28	92
13	29	73
13	30	98
14	1	28
14	2	12
14	3	9
14	4	10
14	5	38
14	6	52
14	7	33
14	8	9
14	9	86
14	10	99
14	11	96
14	12	71
14	13	36
14	14	46
14	15	41
14	16	25
14	17	4
14	18	58
14	19	59
14	20	95
14	21	5
14	22	4
14	23	84
14	24	50
14	25	6
14	26	44
14	27	41
14	28	72
14	29	16
14	30	35
15	1	6
15	2	74
15	3	17
15	4	5
15	5	41
15	6	12
15	7	31
15	8	9
15	9	14
15	10	86
15	11	80
15	12	56
15	13	14
15	14	18
15	15	78
15	16	75
15	17	27
15	18	54
15	19	60
15	20	70
15	21	22
15	22	26
15	23	38
15	24	74
15	25	76
15	26	74
15	27	47
15	28	88
15	29	27
15	30	12
16	1	11
16	2	93
16	3	39
16	4	88
16	5	45
16	6	49
16	7	21
16	8	70
16	9	80
16	10	24
16	11	24
16	12	67
16	13	63
16	14	33
16	15	14
16	16	56
16	17	77
16	18	47
16	19	98
16	20	74
16	21	93
16	22	34
16	23	50
16	24	7
16	25	29
16	26	28
16	27	54
16	28	80
16	29	89
16	30	38
17	1	77
17	2	21
17	3	9
17	4	43
17	5	26
17	6	62
17	7	31
17	8	34
17	9	58
17	10	7
17	11	75
17	12	11
17	13	47
17	14	61
17	15	90
17	16	28
17	17	25
17	18	13
17	19	2
17	20	54
17	21	52
17	22	16
17	23	83
17	24	92
17	25	78
17	26	8
17	27	15
17	28	73
17	29	18
17	30	60
18	1	24
18	2	20
18	3	25
18	4	46
18	5	6
18	6	40
18	7	58
18	8	87
18	9	67
18	10	6
18	11	69
18	12	90
18	13	52
18	14	13
18	15	51
18	16	94
18	17	41
18	18	44
18	19	38
18	20	8
18	21	23
18	22	67
18	23	21
18	24	79
18	25	85
18	26	43
18	27	57
18	28	40
18	29	84
18	30	43
19	1	54
19	2	22
19	3	70
19	4	62
19	5	67
19	6	29
19	7	95
19	8	21
19	9	61
19	10	20
19	11	19
19	12	64
19	13	83
19	14	25
19	15	98
19	16	6
19	17	90
19	18	8
19	19	19
19	20	88
19	21	2
19	22	53
19	23	5
19	24	34
19	25	77
19	26	29
19	27	25
19	28	39
19	29	46
19	30	57
20	1	69
20	2	0
20	3	34
20	4	93
20	5	65
20	6	1
20	7	59
20	8	4
20	9	65
20	10	99
20	11	97
20	12	86
20	13	26
20	14	65
20	15	42
20	16	63
20	17	48
20	18	93
20	19	5
20	20	63
20	21	50
20	22	72
20	23	30
20	24	53
20	25	14
20	26	88
20	27	22
20	28	99
20	29	6
20	30	87
21	1	16
21	2	55
21	3	56
21	4	40
21	5	17
21	6	16
21	7	72
21	8	76
21	9	19
21	10	94
21	11	7
21	12	70
21	13	66
21	14	75
21	15	2
21	16	16
21	17	97
21	18	96
21	19	83
21	20	6
21	21	20
21	22	36
21	23	83
21	24	14
21	25	95
21	26	5
21	27	14
21	28	36
21	29	1
21	30	88
22	1	1
22	2	48
22	3	48
22	4	72
22	5	76
22	6	84
22	7	46
22	8	53
22	9	79
22	10	31
22	11	25
22	12	19
22	13	9
22	14	9
22	15	1
22	16	47
22	17	31
22	18	83
22	19	9
22	20	58
22	21	35
22	22	11
22	23	49
22	24	21
22	25	94
22	26	34
22	27	29
22	28	95
22	29	67
22	30	69
23	1	88
23	2	65
23	3	58
23	4	40
23	5	36
23	6	89
23	7	9
23	8	87
23	9	52
23	10	81
23	11	95
23	12	14
23	13	16
23	14	87
23	15	56
23	16	68
23	17	72
23	18	27
23	19	74
23	20	83
23	21	52
23	22	26
23	23	84
23	24	98
23	25	89
23	26	30
23	27	77
23	28	60
23	29	29
23	30	7
24	1	33
24	2	54
24	3	98
24	4	63
24	5	98
24	6	33
24	7	83
24	8	28
24	9	84
24	10	31
24	11	50
24	12	94
24	13	53
24	14	80
24	15	91
24	16	0
24	17	34
24	18	83
24	19	86
24	20	9
24	21	64
24	22	91
24	23	9
24	24	18
24	25	58
24	26	92
24	27	24
24	28	92
24	29	53
24	30	21
25	1	49
25	2	11
25	3	71
25	4	42
25	5	79
25	6	84
25	7	17
25	8	53
25	9	3
25	10	54
25	11	79
25	12	27
25	13	42
25	14	7
25	15	11
25	16	86
25	17	13
25	18	53
25	19	25
25	20	67
25	21	85
25	22	53
25	23	7
25	24	34
25	25	77
25	26	96
25	27	34
25	28	43
25	29	23
25	30	52
26	1	65
26	2	53
26	3	6
26	4	75
26	5	39
26	6	60
26	7	18
26	8	98
26	9	83
26	10	81
26	11	23
26	12	75
26	13	19
26	14	19
26	15	16
26	16	46
26	17	48
26	18	95
26	19	3
26	20	32
26	21	12
26	22	12
26	23	46
26	24	86
26	25	83
26	26	96
26	27	60
26	28	62
26	29	36
26	30	34
27	1	44
27	2	74
27	3	81
27	4	98
27	5	77
27	6	54
27	7	93
27	8	17
27	9	34
27	10	40
27	11	36
27	12	51
27	13	77
27	14	38
27	15	79
27	16	78
27	17	46
27	18	60
27	19	68
27	20	76
27	21	43
27	22	15
27	23	75
27	24	92
27	25	84
27	26	3
27	27	46
27	28	13
27	29	76
27	30	61
28	1	37
28	2	76
28	3	27
28	4	37
28	5	91
28	6	98
28	7	1
28	8	99
28	9	87
28	10	99
28	11	84
28	12	13
28	13	92
28	14	55
28	15	14
28	16	36
28	17	81
28	18	5
28	19	92
28	20	13
28	21	99
28	22	0
28	23	78
28	24	73
28	25	91
28	26	59
28	27	48
28	28	66
28	29	21
28	30	79
29	1	52
29	2	82
29	3	61
29	4	11
29	5	99
29	6	40
29	7	9
29	8	6
29	9	76
29	10	51
29	11	73
29	12	75
29	13	62
29	14	89
29	15	40
29	16	35
29	17	93
29	18	2
29	19	97
29	20	31
29	21	98
29	22	84
29	23	91
29	24	45
29	25	13
29	26	68
29	27	38
29	28	46
29	29	25
29	30	4
30	1	9
30	2	39
30	3	28
30	4	53
30	5	76
30	6	10
30	7	75
30	8	95
30	9	71
30	10	73
30	11	64
30	12	45
30	13	3
30	14	92
30	15	96
30	16	4
30	17	40
30	18	92
30	19	81
30	20	12
30	21	45
30	22	18
30	23	97
30	24	73
30	25	18
30	26	91
30	27	12
30	28	57
30	29	91
30	30	65
31	1	36
31	2	13
31	3	85
31	4	97
31	5	52
31	6	46
31	7	3
31	8	72
31	9	54
31	10	37
31	11	40
31	12	61
31	13	85
31	14	5
31	15	26
31	16	75
31	17	51
31	18	63
31	19	30
31	20	79
31	21	60
31	22	83
31	23	95
31	24	55
31	25	6
31	26	95
31	27	77
31	28	26
31	29	4
31	30	85
32	1	25
32	2	6
32	3	39
32	4	57
32	5	94
32	6	7
32	7	86
32	8	76
32	9	7
32	10	30
32	11	22
32	12	12
32	13	98
32	14	32
32	15	22
32	16	52
32	17	91
32	18	33
32	19	28
32	20	39
32	21	17
32	22	6
32	23	20
32	24	76
32	25	61
32	26	63
32	27	28
32	28	81
32	29	90
32	30	41
33	1	75
33	2	93
33	3	10
33	4	43
33	5	27
33	6	66
33	7	58
33	8	81
33	9	1
33	10	99
33	11	5
33	12	41
33	13	49
33	14	88
33	15	54
33	16	54
33	17	18
33	18	94
33	19	43
33	20	51
33	21	63
33	22	71
33	23	84
33	24	35
33	25	64
33	26	94
33	27	9
33	28	91
33	29	53
33	30	83
34	1	0
34	2	30
34	3	74
34	4	11
34	5	19
34	6	24
34	7	30
34	8	37
34	9	70
34	10	85
34	11	80
34	12	13
34	13	60
34	14	97
34	15	94
34	16	48
34	17	39
34	18	2
34	19	75
34	20	35
34	21	29
34	22	95
34	23	29
34	24	65
34	25	86
34	26	84
34	27	4
34	28	79
34	29	53
34	30	20
35	1	56
35	2	67
35	3	76
35	4	96
35	5	10
35	6	64
35	7	20
35	8	82
35	9	14
35	10	37
35	11	97
35	12	38
35	13	16
35	14	58
35	15	86
35	16	16
35	17	98
35	18	93
35	19	6
35	20	52
35	21	61
35	22	70
35	23	90
35	24	10
35	25	34
35	26	94
35	27	53
35	28	26
35	29	65
35	30	20
36	1	54
36	2	58
36	3	98
36	4	17
36	5	8
36	6	42
36	7	54
36	8	68
36	9	80
36	10	27
36	11	80
36	12	97
36	13	82
36	14	17
36	15	14
36	16	17
36	17	43
36	18	48
36	19	93
36	20	39
36	21	35
36	22	87
36	23	99
36	24	86
36	25	69
36	26	22
36	27	23
36	28	99
36	29	86
36	30	89
37	1	81
37	2	45
37	3	22
37	4	44
37	5	26
37	6	34
37	7	11
37	8	78
37	9	37
37	10	31
37	11	67
37	12	48
37	13	65
37	14	16
37	15	36
37	16	50
37	17	88
37	18	16
37	19	40
37	20	71
37	21	92
37	22	22
37	23	26
37	24	94
37	25	78
37	26	61
37	27	7
37	28	36
37	29	76
37	30	89
38	1	63
38	2	55
38	3	98
38	4	26
38	5	15
38	6	47
38	7	74
38	8	37
38	9	24
38	10	20
38	11	52
38	12	53
38	13	43
38	14	15
38	15	43
38	16	61
38	17	50
38	18	23
38	19	65
38	20	22
38	21	35
38	22	94
38	23	96
38	24	94
38	25	4
38	26	65
38	27	45
38	28	68
38	29	41
38	30	35
39	1	9
39	2	39
39	3	31
39	4	59
39	5	73
39	6	74
39	7	42
39	8	65
39	9	61
39	10	62
39	11	8
39	12	86
39	13	51
39	14	26
39	15	72
39	16	79
39	17	23
39	18	66
39	19	83
39	20	73
39	21	83
39	22	43
39	23	34
39	24	55
39	25	94
39	26	25
39	27	17
39	28	97
39	29	8
39	30	70
40	1	9
40	2	85
40	3	75
40	4	90
40	5	15
40	6	95
40	7	73
40	8	46
40	9	56
40	10	26
40	11	91
40	12	61
40	13	47
40	14	99
40	15	49
40	16	36
40	17	16
40	18	67
40	19	50
40	20	31
40	21	70
40	22	96
40	23	89
40	24	31
40	25	93
40	26	22
40	27	57
40	28	1
40	29	38
40	30	91
41	1	38
41	2	22
41	3	46
41	4	30
41	5	62
41	6	52
41	7	11
41	8	7
41	9	78
41	10	39
41	11	63
41	12	88
41	13	55
41	14	4
41	15	51
41	16	90
41	17	20
41	18	59
41	19	34
41	20	90
41	21	5
41	22	25
41	23	19
41	24	39
41	25	42
41	26	80
41	27	14
41	28	92
41	29	45
41	30	24
42	1	61
42	2	52
42	3	64
42	4	73
42	5	87
42	6	93
42	7	93
42	8	3
42	9	87
42	10	97
42	11	76
42	12	94
42	13	14
42	14	38
42	15	30
42	16	79
42	17	50
42	18	90
42	19	2
42	20	64
42	21	84
42	22	35
42	23	6
42	24	84
42	25	12
42	26	5
42	27	13
42	28	26
42	29	49
42	30	92
43	1	2
43	2	18
43	3	4
43	4	92
43	5	78
43	6	64
43	7	64
43	8	77
43	9	30
43	10	85
43	11	88
43	12	20
43	13	68
43	14	91
43	15	11
43	16	93
43	17	80
43	18	90
43	19	1
43	20	39
43	21	90
43	22	13
43	23	23
43	24	70
43	25	5
43	26	8
43	27	3
43	28	53
43	29	82
43	30	47
44	1	97
44	2	79
44	3	59
44	4	18
44	5	10
44	6	25
44	7	33
44	8	25
44	9	7
44	10	66
44	11	67
44	12	10
44	13	29
44	14	87
44	15	65
44	16	56
44	17	1
44	18	0
44	19	52
44	20	60
44	21	82
44	22	77
44	23	44
44	24	58
44	25	6
44	26	44
44	27	92
44	28	69
44	29	21
44	30	95
45	1	41
45	2	62
45	3	8
45	4	40
45	5	33
45	6	81
45	7	44
45	8	72
45	9	42
45	10	82
45	11	46
45	12	22
45	13	37
45	14	56
45	15	2
45	16	62
45	17	90
45	18	54
45	19	84
45	20	35
45	21	81
45	22	25
45	23	95
45	24	54
45	25	80
45	26	47
45	27	86
45	28	84
45	29	90
45	30	3
46	1	67
46	2	98
46	3	94
46	4	36
46	5	77
46	6	92
46	7	26
46	8	79
46	9	95
46	10	56
46	11	80
46	12	52
46	13	9
46	14	88
46	15	8
46	16	69
46	17	69
46	18	64
46	19	77
46	20	95
46	21	5
46	22	5
46	23	89
46	24	43
46	25	65
46	26	20
46	27	80
46	28	16
46	29	16
46	30	97
47	1	62
47	2	14
47	3	17
47	4	85
47	5	53
47	6	71
47	7	51
47	8	79
47	9	27
47	10	1
47	11	75
47	12	8
47	13	81
47	14	43
47	15	21
47	16	86
47	17	84
47	18	62
47	19	67
47	20	69
47	21	68
47	22	28
47	23	59
47	24	45
47	25	80
47	26	87
47	27	42
47	28	32
47	29	84
47	30	95
48	1	45
48	2	70
48	3	4
48	4	73
48	5	19
48	6	31
48	7	44
48	8	16
48	9	24
48	10	78
48	11	11
48	12	55
48	13	21
48	14	62
48	15	41
48	16	57
48	17	8
48	18	17
48	19	3
48	20	13
48	21	7
48	22	5
48	23	21
48	24	47
48	25	88
48	26	20
48	27	49
48	28	47
48	29	99
48	30	52
49	1	94
49	2	7
49	3	23
49	4	70
49	5	49
49	6	19
49	7	95
49	8	68
49	9	2
49	10	59
49	11	36
49	12	94
49	13	38
49	14	64
49	15	90
49	16	56
49	17	19
49	18	87
49	19	93
49	20	64
49	21	43
49	22	71
49	23	72
49	24	55
49	25	99
49	26	86
49	27	84
49	28	26
49	29	74
49	30	31
50	1	30
50	2	46
50	3	72
50	4	67
50	5	98
50	6	44
50	7	64
50	8	57
50	9	42
50	10	82
50	11	74
50	12	30
50	13	79
50	14	62
50	15	54
50	16	69
50	17	66
50	18	33
50	19	31
50	20	18
50	21	96
50	22	86
50	23	13
50	24	48
50	25	20
50	26	59
50	27	82
50	28	24
50	29	87
50	30	87
51	1	17
51	2	63
51	3	55
51	4	85
51	5	42
51	6	80
51	7	13
51	8	16
51	9	55
51	10	61
51	11	27
51	12	13
51	13	17
51	14	4
51	15	92
51	16	46
51	17	91
51	18	29
51	19	55
51	20	43
51	21	58
51	22	28
51	23	38
51	24	26
51	25	63
51	26	28
51	27	81
51	28	8
51	29	56
51	30	79
52	1	86
52	2	59
52	3	31
52	4	85
52	5	18
52	6	43
52	7	88
52	8	45
52	9	14
52	10	94
52	11	63
52	12	69
52	13	93
52	14	58
52	15	0
52	16	97
52	17	63
52	18	41
52	19	69
52	20	19
52	21	86
52	22	36
52	23	38
52	24	87
52	25	37
52	26	3
52	27	76
52	28	58
52	29	60
52	30	51
53	1	21
53	2	14
53	3	16
53	4	25
53	5	51
53	6	57
53	7	84
53	8	2
53	9	56
53	10	54
53	11	44
53	12	62
53	13	63
53	14	90
53	15	56
53	16	66
53	17	2
53	18	65
53	19	27
53	20	72
53	21	90
53	22	33
53	23	12
53	24	72
53	25	73
53	26	57
53	27	10
53	28	19
53	29	70
53	30	53
54	1	33
54	2	90
54	3	86
54	4	31
54	5	63
54	6	99
54	7	0
54	8	55
54	9	43
54	10	45
54	11	51
54	12	89
54	13	43
54	14	85
54	15	69
54	16	97
54	17	6
54	18	41
54	19	13
54	20	9
54	21	68
54	22	91
54	23	46
54	24	79
54	25	10
54	26	11
54	27	24
54	28	92
54	29	73
54	30	52
55	1	2
55	2	98
55	3	52
55	4	83
55	5	72
55	6	78
55	7	60
55	8	25
55	9	85
55	10	72
55	11	8
55	12	63
55	13	42
55	14	27
55	15	50
55	16	9
55	17	28
55	18	32
55	19	4
55	20	44
55	21	35
55	22	71
55	23	20
55	24	83
55	25	12
55	26	85
55	27	79
55	28	22
55	29	15
55	30	39
56	1	38
56	2	62
56	3	63
56	4	42
56	5	41
56	6	40
56	7	11
56	8	42
56	9	90
56	10	76
56	11	0
56	12	19
56	13	15
56	14	50
56	15	57
56	16	33
56	17	4
56	18	57
56	19	25
56	20	4
56	21	87
56	22	88
56	23	80
56	24	35
56	25	64
56	26	59
56	27	50
56	28	95
56	29	43
56	30	74
57	1	29
57	2	36
57	3	18
57	4	90
57	5	79
57	6	2
57	7	99
57	8	28
57	9	45
57	10	54
57	11	83
57	12	55
57	13	26
57	14	23
57	15	25
57	16	4
57	17	84
57	18	69
57	19	41
57	20	33
57	21	79
57	22	89
57	23	65
57	24	42
57	25	71
57	26	28
57	27	29
57	28	64
57	29	8
57	30	71
58	1	48
58	2	46
58	3	10
58	4	14
58	5	24
58	6	53
58	7	14
58	8	63
58	9	96
58	10	69
58	11	29
58	12	86
58	13	18
58	14	94
58	15	28
58	16	31
58	17	21
58	18	28
58	19	74
58	20	86
58	21	96
58	22	23
58	23	48
58	24	30
58	25	20
58	26	29
58	27	42
58	28	19
58	29	94
58	30	70
59	1	20
59	2	91
59	3	64
59	4	17
59	5	64
59	6	96
59	7	64
59	8	50
59	9	67
59	10	77
59	11	77
59	12	39
59	13	26
59	14	53
59	15	22
59	16	57
59	17	59
59	18	4
59	19	9
59	20	32
59	21	37
59	22	28
59	23	1
59	24	88
59	25	23
59	26	37
59	27	9
59	28	29
59	29	38
59	30	17
60	1	85
60	2	79
60	3	6
60	4	52
60	5	85
60	6	73
60	7	58
60	8	98
60	9	45
60	10	60
60	11	74
60	12	62
60	13	60
60	14	67
60	15	13
60	16	12
60	17	72
60	18	35
60	19	55
60	20	21
60	21	20
60	22	29
60	23	46
60	24	31
60	25	89
60	26	73
60	27	32
60	28	88
60	29	62
60	30	72
Points
j	k	q	p
1	0	4.64169	7.97259
1	1	5.45771	7.76206
1	2	6.27374	7.50002
1	3	7.08976	7.17484
1	4	7.90579	6.77455
1	5	8.72181	6.28701
1	6	9.53784	5.69987
1	7	10.3539	5.00072
1	8	11.1699	4.17707
1	9	11.9859	3.21636
2	0	3.83075	6.7047
2	1	4.65215	6.49282
2	2	5.47354	6.23111
2	3	6.29493	5.9047
2	4	7.11632	5.49783
2	5	7.93771	4.99417
2	6	8.75911	4.37708
2	7	9.5805	3.62965
2	8	10.4019	2.73481
2	9	11.2233	1.67538
3	0	3.11499	5.6705
3	1	3.94112	5.47673
3	2	4.76725	5.24433
3	3	5.59337	4.95761
3	4	6.4195	4.59879
3	5	7.24563	4.14891
3	6	8.07176	3.58825
3	7	8.89789	2.89659
3	8	9.72402	2.05342
3	9	10.5501	1.03796
4	0	5.13451	8.80914
4	1	5.94728	8.61655
4	2	6.76004	8.37752
4	3	7.5728	8.08295
4	4	8.38557	7.72358
4	5	9.19833	7.29002
4	6	10.0111	6.77281
4	7	10.8239	6.16242
4	8	11.6366	5.44928
4	9	12.4494	4.6238
5	0	1.88493	4.0202
5	1	2.71919	3.88497
5	2	3.55346	3.73821
5	3	4.38773	3.57689
5	4	5.222	3.38785
5	5	6.05627	3.15294
5	6	6.89054	2.85124
5	7	7.72481	2.46023
5	8	8.55908	1.95631
5	9	9.39335	1.31521
6	0	1.37958	3.3586
6	1	2.2172	3.2699
6	2	3.05481	3.16826
6	3	3.89242	3.07054
6	4	4.73004	2.97264
6	5	5.56765	2.86103
6	6	6.40526	2.71736
6	7	7.24288	2.52049
6	8	8.08049	2.2476
6	9	8.9181	1.87477
7	0	2.76715	5.1904
7	1	3.59558	5.00957
7	2	4.42401	4.79798
7	3	5.25244	4.54095
7	4	6.08087	4.22059
7	5	6.90931	3.81722
7	6	7.73774	3.31011
7	7	8.56617	2.67782
7	8	9.3946	1.8985
7	9	10.223	0.949934
8	0	2.19218	4.42201
8	1	3.02442	4.268
8	2	3.85665	4.09697
8	3	4.68889	3.8997
8	4	5.52112	3.66025
8	5	6.35336	3.35922
8	6	7.18559	2.97525
8	7	8.01783	2.48578
8	8	8.85007	1.86749
8	9	9.6823	1.0965
9	0	1.63249	3.69123
9	1	2.46843	3.57586
9	2	3.30437	3.4506
9	3	4.14031	3.3204
9	4	4.97625	3.17575
9	5	5.81219	3.00034
9	6	6.64813	2.7742
9	7	7.48407	2.47524
9	8	8.32001	2.08005
9	9	9.15595	1.56436
10	0	3.13638	5.70047
10	1	3.96237	5.50598
10	2	4.78836	5.27241
10	3	5.61434	4.98406
10	4	6.44033	4.62318
10	5	7.26632	4.17085
10	6	8.09231	3.60743
10	7	8.91829	2.9128
10	8	9.74428	2.06653
10	9	10.5703	1.04794
11	0	5.20121	8.927
11	1	6.01353	8.73807
11	2	6.82585	8.50373
11	3	7.63817	8.21525
11	4	8.4505	7.86374
11	5	9.26282	7.4402
11	6	10.0751	6.93556
11	7	10.8875	6.34068
11	8	11.6998	5.6464
11	9	12.5121	4.84352
12	0	4.31091	7.441
12	1	5.12913	7.22629
12	2	5.94734	6.95925
12	3	6.76555	6.62675
12	4	7.58377	6.21515
12	5	8.40198	5.71049
12	6	9.2202	5.09863
12	7	10.0384	4.36524
12	8	10.8566	3.49591
12	9	11.6748	2.47616
13	0	3.46932	6.17398
13	1	4.2931	5.96958
13	2	5.11688	5.71999
13	3	5.94067	5.40957
13	4	6.76445	5.02131
13	5	7.58823	4.53739
13	6	8.41202	3.93947
13	7	9.2358	3.20889
13	8	10.0596	2.32672
13	9	10.8834	1.2739
14	0	5.71633	9.88099
14	1	6.52524	9.73165
14	2	7.33416	9.5476
14	3	8.14307	9.32298
14	4	8.95198	9.05185
14	5	9.7609	8.72821
14	6	10.5698	8.34606
14	7	11.3787	7.89933
14	8	12.1876	7.38195
14	9	12.9965	6.78783
15	0	2.20117	4.43383
15	1	3.03335	4.27933
15	2	3.86552	4.10762
15	3	4.6977	3.90934
15	4	5.52987	3.66847
15	5	6.36205	3.36562
15	6	7.19423	2.97941
15	7	8.0264	2.4873
15	8	8.85858	1.86595
15	9	9.69075	1.09153
16	0	1.66335	3.7315
16	1	2.49908	3.61341
16	2	3.33482	3.48543
16	3	4.17055	3.35135
16	4	5.00629	3.20115
16	5	5.84202	3.01824
16	6	6.67776	2.78249
16	7	7.51349	2.47175
16	8	8.34923	2.06256
16	9	9.18496	1.53062
17	0	3.16541	5.7412
17	1	3.9912	5.54576
17	2	4.817	5.31064
17	3	5.64279	5.02011
17	4	6.46859	4.65648
17	5	7.29438	4.20091
17	6	8.12018	3.63386
17	7	8.94597	2.93532
17	8	9.77177	2.08499
17	9	10.5976	1.06234
18	0	5.21972	8.95993
18	1	6.03192	8.77208
18	2	6.84412	8.53912
18	3	7.65632	8.25241
18	4	8.46852	7.90318
18	5	9.28072	7.48254
18	6	10.0929	6.98152
18	7	10.9051	6.39109
18	8	11.7173	5.70221
18	9	12.5295	4.90579
19	0	1.94446	4.09779
19	1	2.77833	3.95855
19	2	3.61221	3.80694
19	3	4.44608	3.63848
19	4	5.27996	3.43934
19	5	6.11383	3.19106
19	6	6.94771	2.87258
19	7	7.78158	2.46131
19	8	8.61546	1.93369
19	9	9.44933	1.26549
20	0	1.42587	3.41994
20	1	2.26317	3.32568
20	2	3.10048	3.21952
20	3	3.93779	3.11576
20	4	4.7751	3.00915
20	5	5.6124	2.88557
20	6	6.44971	2.72632
20	7	7.28702	2.51004
20	8	8.12432	2.21377
20	9	8.96163	1.81349
21	0	2.8538	5.30879
21	1	3.68166	5.12452
21	2	4.50952	4.90744
21	3	5.33738	4.64249
21	4	6.16523	4.31174
21	5	6.99309	3.89563
21	6	7.82095	3.37364
21	7	8.6488	2.72463
21	8	9.47666	1.92703
21	9	10.3045	0.958982
22	0	4.79811	8.23192
22	1	5.6131	8.02545
22	2	6.42809	7.76858
22	3	7.24308	7.45045
22	4	8.05807	7.05995
22	5	8.87306	6.58577
22	6	9.68805	6.01649
22	7	10.503	5.34059
22	8	11.318	4.54652
22	9	12.133	3.62263
23	0	3.97766	6.92593
23	1	4.79808	6.71222
23	2	5.6185	6.44745
23	3	6.43892	6.11723
23	4	7.25934	5.70637
23	5	8.07976	5.19927
23	6	8.90018	4.57999
23	7	9.7206	3.83241
23	8	10.541	2.94025
23	9	11.3614	1.88713
24	0	1.21802	3.14179
24	1	2.0567	3.07556
24	2	2.89539	2.99064
24	3	3.73407	2.9144
24	4	4.57275	2.84738
24	5	5.41143	2.77852
24	6	6.25012	2.6909
24	7	7.0888	2.56431
24	8	7.92748	2.37655
24	9	8.76616	2.10418
25	0	5.29	9.08581
25	1	6.10173	8.90225
25	2	6.91347	8.67478
25	3	7.7252	8.39516
25	4	8.53694	8.055
25	5	9.34867	7.64582
25	6	10.1604	7.15907
25	7	10.9721	6.58614
25	8	11.7839	5.91841
25	9	12.5956	5.14721
26	0	4.36989	7.53421
26	1	5.18772	7.31985
26	2	6.00554	7.05314
26	3	6.82336	6.72122
26	4	7.64119	6.31073
26	5	8.45901	5.80804
26	6	9.27683	5.19929
26	7	10.0947	4.47053
26	8	10.9125	3.60767
26	9	11.7303	2.59657
27	0	3.61048	6.37907
27	1	4.43333	6.17129
27	2	5.25618	5.91624
27	3	6.07903	5.59852
27	4	6.90188	5.20154
27	5	7.72473	4.70805
27	6	8.54758	4.10034
27	7	9.37042	3.3604
27	8	10.1933	2.47003
27	9	11.0161	1.41086
28	0	2.9058	5.38021
28	1	3.73332	5.19395
28	2	4.56083	4.97366
28	3	5.38834	4.70412
28	4	6.21585	4.36738
28	5	7.04337	3.94399
28	6	7.87088	3.41356
28	7	8.69839	2.75513
28	8	9.52591	1.94731
28	9	10.3534	0.96847
29	0	4.86837	8.35021
29	1	5.6829	8.14604
29	2	6.49742	7.89211
29	3	7.31195	7.57794
29	4	8.12647	7.19279
29	5	8.941	6.72574
29	6	9.75552	6.16579
29	7	10.57	5.50183
29	8	11.3846	4.7227
29	9	12.1991	3.81721
30	0	1.71672	3.8011
30	1	2.5521	3.67851
30	2	3.38748	3.54588
30	3	4.22286	3.40515
30	4	5.05824	3.24543
30	5	5.89363	3.04968
30	6	6.72901	2.79756
30	7	7.56439	2.46678
30	8	8.39977	2.03383
30	9	9.23516	1.47441
Max output gas-rate
i	j	qijmax
1	1	11.9859
1	2	11.1625
1	3	9.96778
1	4	12.4494
1	5	8.82262
1	6	8.9181
1	7	9.52098
1	8	8.97279
1	9	8.84888
1	10	9.99788
1	11	12.5121
1	12	11.6748
1	13	10.5079
1	14	12.9965
1	15	8.9791
1	16	8.83434
1	17	10.0392
1	18	12.5295
1	19	8.83996
1	20	8.96163
1	21	9.62481
1	22	12.133
1	23	11.3614
1	24	8.76616
1	25	12.5956
1	26	11.7303
1	27	10.7497
1	28	9.68951
1	29	12.1991
1	30	8.81796
2	1	11.9859
2	2	11.2233
2	3	10.2595
2	4	12.4494
2	5	9.28919
2	6	8.9181
2	7	9.83411
2	8	9.35981
2	9	9.15595
2	10	10.2886
2	11	12.5121
2	12	11.6748
2	13	10.7884
2	14	12.9965
2	15	9.36438
2	16	9.18496
2	17	10.3287
2	18	12.5295
2	19	9.28739
2	20	8.96163
2	21	9.93143
2	22	12.133
2	23	11.3614
2	24	8.76616
2	25	12.5956
2	26	11.7303
2	27	11.0161
2	28	9.99262
2	29	12.1991
2	30	9.23516
3	1	11.9859
3	2	11.2233
3	3	10.4782
3	4	12.4494
3	5	9.39335
3	6	8.9181
3	7	10.0689
3	8	9.65
3	9	9.15595
3	10	10.5066
3	11	12.5121
3	12	11.6748
3	13	10.8834
3	14	12.9965
3	15	9.65327
3	16	9.18496
3	17	10.5458
3	18	12.5295
3	19	9.44933
3	20	8.96163
3	21	10.1613
3	22	12.133
3	23	11.3614
3	24	8.76616
3	25	12.5956
3	26	11.7303
3	27	11.0161
3	28	10.2199
3	29	12.1991
3	30	9.23516
4	1	11.9859
4	2	10.9664
4	3	9.76207
4	4	12.4494
4	5	8.47574
4	6	8.62183
4	7	9.27963
4	8	8.66276
4	9	8.439
4	10	9.79284
4	11	12.5121
4	12	11.6748
4	13	10.31
4	14	12.9965
4	15	8.67015
4	16	8.43707
4	17	9.83503
4	18	12.5295
4	19	8.50015
4	20	8.55758
4	21	9.39403
4	22	12.133
4	23	11.2683
4	24	8.76616
4	25	12.5956
4	26	11.7303
4	27	10.5533
4	28	9.46513
4	29	12.1991
4	30	8.44037
5	1	11.9859
5	2	11.2233
5	3	10.5501
5	4	12.4494
5	5	9.39335
5	6	8.9181
5	7	10.223
5	8	9.6823
5	9	9.15595
5	10	10.5703
5	11	12.5121
5	12	11.6748
5	13	10.8834
5	14	12.9965
5	15	9.69075
5	16	9.18496
5	17	10.5976
5	18	12.5295
5	19	9.44933
5	20	8.96163
5	21	10.3045
5	22	12.133
5	23	11.3614
5	24	8.76616
5	25	12.5956
5	26	11.7303
5	27	11.0161
5	28	10.3534
5	29	12.1991
5	30	9.23516
6	1	11.9859
6	2	11.2233
6	3	10.5501
6	4	12.4494
6	5	9.39335
6	6	8.9181
6	7	10.223
6	8	9.6823
6	9	9.15595
6	10	10.5703
6	11	12.5121
6	12	11.6748
6	13	10.8834
6	14	12.9965
6	15	9.69075
6	16	9.18496
6	17	10.5976
6	18	12.5295
6	19	9.44933
6	20	8.96163
6	21	10.3045
6	22	12.133
6	23	11.3614
6	24	8.76616
6	25	12.5956
6	26	11.7303
6	27	11.0161
6	28	10.3534
6	29	12.1991
6	30	9.23516
7	1	11.9859
7	2	11.2233
7	3	10.5501
7	4	12.4494
7	5	9.39335
7	6	8.9181
7	7	10.1714
7	8	9.6823
7	9	9.15595
7	10	10.5703
7	11	12.5121
7	12	11.6748
7	13	10.8834
7	14	12.9965
7	15	9.69075
7	16	9.18496
7	17	10.5976
7	18	12.5295
7	19	9.44933
7	20	8.96163
7	21	10.2617
7	22	12.133
7	23	11.3614
7	24	8.76616
7	25	12.5956
7	26	11.7303
7	27	11.0161
7	28	10.3191
7	29	12.1991
7	30	9.23516
8	1	11.9859
8	2	11.2233
8	3	10.5501
8	4	12.4494
8	5	9.39335
8	6	8.9181
8	7	10.223
8	8	9.6823
8	9	9.15595
8	10	10.5703
8	11	12.5121
8	12	11.6748
8	13	10.8834
8	14	12.9965
8	15	9.69075
8	16	9.18496
8	17	10.5976
8	18	12.5295
8	19	9.44933
8	20	8.96163
8	21	10.3045
8	22	12.133
8	23	11.3614
8	24	8.76616
8	25	12.5956
8	26	11.7303
8	27	11.0161
8	28	10.3534
8	29	12.1991
8	30	9.23516
9	1	11.9859
9	2	11.2233
9	3	10.5501
9	4	12.4494
9	5	9.39335
9	6	8.9181
9	7	10.223
9	8	9.6823
9	9	9.15595
9	10	10.5703
9	11	12.5121
9	12	11.6748
9	13	10.8834
9	14	12.9965
9	15	9.69075
9	16	9.18496
9	17	10.5976
9	18	12.5295
9	19	9.44933
9	20	8.96163
9	21	10.3045
9	22	12.133
9	23	11.3614
9	24	8.76616
9	25	12.5956
9	26	11.7303
9	27	11.0161
9	28	10.3534
9	29	12.1991
9	30	9.23516
10	1	11.9859
10	2	11.2233
10	3	10.4721
10	4	12.4494
10	5	9.39335
10	6	8.9181
10	7	10.0624
10	8	9.64193
10	9	9.15595
10	10	10.5006
10	11	12.5121
10	12	11.6748
10	13	10.8834
10	14	12.9965
10	15	9.64522
10	16	9.18496
10	17	10.5398
10	18	12.5295
10	19	9.44933
10	20	8.96163
10	21	10.1549
10	22	12.133
10	23	11.3614
10	24	8.76616
10	25	12.5956
10	26	11.7303
10	27	11.0161
10	28	10.2136
10	29	12.1991
10	30	9.23516
11	1	11.9859
11	2	10.9381
11	3	9.7323
11	4	12.4494
11	5	8.41516
11	6	8.53961
11	7	9.24073
11	8	8.6135
11	9	8.37968
11	10	9.76316
11	11	12.5121
11	12	11.6748
11	13	10.2814
11	14	12.9965
11	15	8.62113
11	16	8.37958
11	17	9.80548
11	18	12.5295
11	19	8.44232
11	20	8.48104
11	21	9.35605
11	22	12.133
11	23	11.2398
11	24	8.76616
11	25	12.5956
11	26	11.7303
11	27	10.5248
11	28	9.42764
11	29	12.1991
11	30	8.38163
12	1	11.9859
12	2	11.2233
12	3	10.0931
12	4	12.4494
12	5	9.02314
12	6	8.9181
12	7	9.65555
12	8	9.13913
12	9	9.09866
12	10	10.1228
12	11	12.5121
12	12	11.6748
12	13	10.6284
12	14	12.9965
12	15	9.14469
12	16	9.07643
12	17	10.1636
12	18	12.5295
12	19	9.03226
12	20	8.96163
12	21	9.75659
12	22	12.133
12	23	11.3614
12	24	8.76616
12	25	12.5956
12	26	11.7303
12	27	10.8694
12	28	9.81978
12	29	12.1991
12	30	9.04806
13	1	11.9859
13	2	11.2233
13	3	10.3739
13	4	12.4494
13	5	9.39335
13	6	8.9181
13	7	9.95696
13	8	9.51165
13	9	9.15595
13	10	10.4027
13	11	12.5121
13	12	11.6748
13	13	10.8834
13	14	12.9965
13	15	9.51554
13	16	9.18496
13	17	10.4423
13	18	12.5295
13	19	9.44933
13	20	8.96163
13	21	10.0517
13	22	12.133
13	23	11.3614
13	24	8.76616
13	25	12.5956
13	26	11.7303
13	27	11.0161
13	28	10.1115
13	29	12.1991
13	30	9.23516
14	1	11.9859
14	2	10.702
14	3	9.4357
14	4	12.4494
14	5	7.91113
14	6	7.77328
14	7	8.91711
14	8	8.20372
14	9	7.7539
14	10	9.46986
14	11	12.5121
14	12	11.6748
14	13	10.04
14	14	12.9965
14	15	8.21339
14	16	7.76689
14	17	9.51666
14	18	12.5295
14	19	7.96116
14	20	7.74586
14	21	9.04005
14	22	12.133
14	23	11.0026
14	24	8.01638
14	25	12.5956
14	26	11.7303
14	27	10.2883
14	28	9.11577
14	29	12.1991
14	30	7.79419
15	1	11.9859
15	2	11.2233
15	3	10.5501
15	4	12.4494
15	5	9.39335
15	6	8.9181
15	7	10.223
15	8	9.6823
15	9	9.15595
15	10	10.5703
15	11	12.5121
15	12	11.6748
15	13	10.8834
15	14	12.9965
15	15	9.69075
15	16	9.18496
15	17	10.5976
15	18	12.5295
15	19	9.44933
15	20	8.96163
15	21	10.3045
15	22	12.133
15	23	11.3614
15	24	8.76616
15	25	12.5956
15	26	11.7303
15	27	11.0161
15	28	10.3534
15	29	12.1991
15	30	9.23516
16	1	11.9859
16	2	11.2233
16	3	10.5501
16	4	12.4494
16	5	9.39335
16	6	8.9181
16	7	10.223
16	8	9.6823
16	9	9.15595
16	10	10.5703
16	11	12.5121
16	12	11.6748
16	13	10.8834
16	14	12.9965
16	15	9.69075
16	16	9.18496
16	17	10.5976
16	18	12.5295
16	19	9.44933
16	20	8.96163
16	21	10.3045
16	22	12.133
16	23	11.3614
16	24	8.76616
16	25	12.5956
16	26	11.7303
16	27	11.0161
16	28	10.3534
16	29	12.1991
16	30	9.23516
17	1	11.9859
17	2	11.2233
17	3	10.4638
17	4	12.4494
17	5	9.39335
17	6	8.9181
17	7	10.0534
17	8	9.63091
17	9	9.15595
17	10	10.4923
17	11	12.5121
17	12	11.6748
17	13	10.8834
17	14	12.9965
17	15	9.63426
17	16	9.18496
17	17	10.5315
17	18	12.5295
17	19	9.44933
17	20	8.96163
17	21	10.1462
17	22	12.133
17	23	11.3614
17	24	8.76616
17	25	12.5956
17	26	11.7303
17	27	11.0161
17	28	10.2049
17	29	12.1991
17	30	9.23516
18	1	11.9859
18	2	10.9301
18	3	9.72393
18	4	12.4494
18	5	8.39816
18	6	8.51655
18	7	9.22982
18	8	8.59968
18	9	8.36304
18	10	9.75484
18	11	12.5121
18	12	11.6748
18	13	10.2734
18	14	12.9965
18	15	8.60738
18	16	8.36345
18	17	9.79719
18	18	12.5295
18	19	8.42609
18	20	8.45956
18	21	9.34539
18	22	12.133
18	23	11.2318
18	24	8.76616
18	25	12.5956
18	26	11.7303
18	27	10.5169
18	28	9.41713
18	29	12.1991
18	30	8.36181
19	1	11.9859
19	2	11.2233
19	3	10.5501
19	4	12.4494
19	5	9.39335
19	6	8.9181
19	7	10.223
19	8	9.6823
19	9	9.15595
19	10	10.5703
19	11	12.5121
19	12	11.6748
19	13	10.8834
19	14	12.9965
19	15	9.69075
19	16	9.18496
19	17	10.5976
19	18	12.5295
19	19	9.44933
19	20	8.96163
19	21	10.3045
19	22	12.133
19	23	11.3614
19	24	8.76616
19	25	12.5956
19	26	11.7303
19	27	11.0161
19	28	10.3534
19	29	12.1991
19	30	9.23516
20	1	11.9859
20	2	11.2233
20	3	10.5501
20	4	12.4494
20	5	9.39335
20	6	8.9181
20	7	10.223
20	8	9.6823
20	9	9.15595
20	10	10.5703
20	11	12.5121
20	12	11.6748
20	13	10.8834
20	14	12.9965
20	15	9.69075
20	16	9.18496
20	17	10.5976
20	18	12.5295
20	19	9.44933
20	20	8.96163
20	21	10.3045
20	22	12.133
20	23	11.3614
20	24	8.76616
20	25	12.5956
20	26	11.7303
20	27	11.0161
20	28	10.3534
20	29	12.1991
20	30	9.23516
21	1	11.9859
21	2	11.2233
21	3	10.5501
21	4	12.4494
21	5	9.39335
21	6	8.9181
21	7	10.1465
21	8	9.6823
21	9	9.15595
21	10	10.5703
21	11	12.5121
21	12	11.6748
21	13	10.8834
21	14	12.9965
21	15	9.69075
21	16	9.18496
21	17	10.5976
21	18	12.5295
21	19	9.44933
21	20	8.96163
21	21	10.2373
21	22	12.133
21	23	11.3614
21	24	8.76616
21	25	12.5956
21	26	11.7303
21	27	11.0161
21	28	10.295
21	29	12.1991
21	30	9.23516
22	1	11.9859
22	2	11.1027
22	3	9.90508
22	4	12.4494
22	5	8.72233
22	6	8.9181
22	7	9.45367
22	8	8.88961
22	9	8.72396
22	10	9.93539
22	11	12.5121
22	12	11.6748
22	13	10.4476
22	14	12.9965
22	15	8.89629
22	16	8.71326
22	17	9.97698
22	18	12.5295
22	19	8.74379
22	20	8.92531
22	21	9.55891
22	22	12.133
22	23	11.3614
22	24	8.76616
22	25	12.5956
22	26	11.7303
22	27	10.6898
22	28	9.62436
22	29	12.1991
22	30	8.70288
23	1	11.9859
23	2	11.2233
23	3	10.2104
23	4	12.4494
23	5	9.21071
23	6	8.9181
23	7	9.78144
23	8	9.29472
23	9	9.15595
23	10	10.2397
23	11	12.5121
23	12	11.6748
23	13	10.7412
23	14	12.9965
23	15	9.29958
23	16	9.18496
23	17	10.28
23	18	12.5295
23	19	9.21213
23	20	8.96163
23	21	9.87986
23	22	12.133
23	23	11.3614
23	24	8.76616
23	25	12.5956
23	26	11.7303
23	27	10.9814
23	28	9.94164
23	29	12.1991
23	30	9.23516
24	1	11.9859
24	2	11.2233
24	3	10.5501
24	4	12.4494
24	5	9.39335
24	6	8.9181
24	7	10.223
24	8	9.6823
24	9	9.15595
24	10	10.5703
24	11	12.5121
24	12	11.6748
24	13	10.8834
24	14	12.9965
24	15	9.69075
24	16	9.18496
24	17	10.5976
24	18	12.5295
24	19	9.44933
24	20	8.96163
24	21	10.3045
24	22	12.133
24	23	11.3614
24	24	8.76616
24	25	12.5956
24	26	11.7303
24	27	11.0161
24	28	10.3534
24	29	12.1991
24	30	9.23516
25	1	11.9859
25	2	10.8996
25	3	9.68532
25	4	12.4494
25	5	8.33293
25	6	8.42802
25	7	9.18793
25	8	8.54665
25	9	8.29281
25	10	9.71853
25	11	12.5121
25	12	11.6748
25	13	10.2425
25	14	12.9965
25	15	8.55461
25	16	8.28724
25	17	9.76408
25	18	12.5295
25	19	8.36382
25	20	8.37713
25	21	9.30449
25	22	12.133
25	23	11.2011
25	24	8.76616
25	25	12.5956
25	26	11.7303
25	27	10.4863
25	28	9.37676
25	29	12.1991
25	30	8.28579
26	1	11.9859
26	2	11.2233
26	3	10.0715
26	4	12.4494
26	5	8.98848
26	6	8.9181
26	7	9.63229
26	8	9.11037
26	9	9.05549
26	10	10.1012
26	11	12.5121
26	12	11.6748
26	13	10.6076
26	14	12.9965
26	15	9.11607
26	16	9.03459
26	17	10.1421
26	18	12.5295
26	19	8.99902
26	20	8.96163
26	21	9.73381
26	22	12.133
26	23	11.3614
26	24	8.76616
26	25	12.5956
26	26	11.7303
26	27	10.8487
26	28	9.79726
26	29	12.1991
26	30	9.00828
27	1	11.9859
27	2	11.2233
27	3	10.3302
27	4	12.4494
27	5	9.39335
27	6	8.9181
27	7	9.91007
27	8	9.4537
27	9	9.15595
27	10	10.3592
27	11	12.5121
27	12	11.6748
27	13	10.8565
27	14	12.9965
27	15	9.45785
27	16	9.18496
27	17	10.399
27	18	12.5295
27	19	9.39594
27	20	8.96163
27	21	10.0058
27	22	12.133
27	23	11.3614
27	24	8.76616
27	25	12.5956
27	26	11.7303
27	27	11.0161
27	28	10.0662
27	29	12.1991
27	30	9.23516
28	1	11.9859
28	2	11.2233
28	3	10.5364
28	4	12.4494
28	5	9.39335
28	6	8.9181
28	7	10.1314
28	8	9.6823
28	9	9.15595
28	10	10.5647
28	11	12.5121
28	12	11.6748
28	13	10.8834
28	14	12.9965
28	15	9.69075
28	16	9.18496
28	17	10.5976
28	18	12.5295
28	19	9.44933
28	20	8.96163
28	21	10.2225
28	22	12.133
28	23	11.3614
28	24	8.76616
28	25	12.5956
28	26	11.7303
28	27	11.0161
28	28	10.2804
28	29	12.1991
28	30	9.23516
29	1	11.9859
29	2	11.0752
29	3	9.87616
29	4	12.4494
29	5	8.67607
29	6	8.9181
29	7	9.42262
29	8	8.85123
29	9	8.66633
29	10	9.90656
29	11	12.5121
29	12	11.6748
29	13	10.4198
29	14	12.9965
29	15	8.85797
29	16	8.6574
29	17	9.94828
29	18	12.5295
29	19	8.69942
29	20	8.85094
29	21	9.52851
29	22	12.133
29	23	11.3614
29	24	8.76616
29	25	12.5956
29	26	11.7303
29	27	10.6622
29	28	9.59431
29	29	12.1991
29	30	8.64979
30	1	11.9859
30	2	11.2233
30	3	10.5501
30	4	12.4494
30	5	9.39335
30	6	8.9181
30	7	10.223
30	8	9.6823
30	9	9.15595
30	10	10.5703
30	11	12.5121
30	12	11.6748
30	13	10.8834
30	14	12.9965
30	15	9.69075
30	16	9.18496
30	17	10.5976
30	18	12.5295
30	19	9.44933
30	20	8.96163
30	21	10.3045
30	22	12.133
30	23	11.3614
30	24	8.76616
30	25	12.5956
30	26	11.7303
30	27	11.0161
30	28	10.3534
30	29	12.1991
30	30	9.23516
31	1	11.9859
31	2	11.2233
31	3	10.4349
31	4	12.4494
31	5	9.39335
31	6	8.9181
31	7	10.0224
31	8	9.59258
31	9	9.15595
31	10	10.4635
31	11	12.5121
31	12	11.6748
31	13	10.8834
31	14	12.9965
31	15	9.5961
31	16	9.18496
31	17	10.5029
31	18	12.5295
31	19	9.44933
31	20	8.96163
31	21	10.1158
31	22	12.133
31	23	11.3614
31	24	8.76616
31	25	12.5956
31	26	11.7303
31	27	11.0161
31	28	10.1749
31	29	12.1991
31	30	9.23516
32	1	11.9859
32	2	11.2233
32	3	10.5501
32	4	12.4494
32	5	9.39335
32	6	8.9181
32	7	10.218
32	8	9.6823
32	9	9.15595
32	10	10.5703
32	11	12.5121
32	12	11.6748
32	13	10.8834
32	14	12.9965
32	15	9.69075
32	16	9.18496
32	17	10.5976
32	18	12.5295
32	19	9.44933
32	20	8.96163
32	21	10.3045
32	22	12.133
32	23	11.3614
32	24	8.76616
32	25	12.5956
32	26	11.7303
32	27	11.0161
32	28	10.3534
32	29	12.1991
32	30	9.23516
33	1	11.9859
33	2	11.2233
33	3	10.5501
33	4	12.4494
33	5	9.39335
33	6	8.9181
33	7	10.223
33	8	9.6823
33	9	9.15595
33	10	10.5703
33	11	12.5121
33	12	11.6748
33	13	10.8834
33	14	12.9965
33	15	9.69075
33	16	9.18496
33	17	10.5976
33	18	12.5295
33	19	9.44933
33	20	8.96163
33	21	10.3045
33	22	12.133
33	23	11.3614
33	24	8.76616
33	25	12.5956
33	26	11.7303
33	27	11.0161
33	28	10.3534
33	29	12.1991
33	30	9.23516
34	1	11.9859
34	2	11.2233
34	3	10.5501
34	4	12.4494
34	5	9.39335
34	6	8.9181
34	7	10.223
34	8	9.6823
34	9	9.15595
34	10	10.5703
34	11	12.5121
34	12	11.6748
34	13	10.8834
34	14	12.9965
34	15	9.69075
34	16	9.18496
34	17	10.5976
34	18	12.5295
34	19	9.44933
34	20	8.96163
34	21	10.3045
34	22	12.133
34	23	11.3614
34	24	8.76616
34	25	12.5956
34	26	11.7303
34	27	11.0161
34	28	10.3534
34	29	12.1991
34	30	9.23516
35	1	11.9859
35	2	11.2233
35	3	10.5271
35	4	12.4494
35	5	9.39335
35	6	8.9181
35	7	10.1214
35	8	9.6823
35	9	9.15595
35	10	10.5553
35	11	12.5121
35	12	11.6748
35	13	10.8834
35	14	12.9965
35	15	9.69075
35	16	9.18496
35	17	10.5943
35	18	12.5295
35	19	9.44933
35	20	8.96163
35	21	10.2127
35	22	12.133
35	23	11.3614
35	24	8.76616
35	25	12.5956
35	26	11.7303
35	27	11.0161
35	28	10.2707
35	29	12.1991
35	30	9.23516
36	1	11.9859
36	2	11.2233
36	3	10.5501
36	4	12.4494
36	5	9.39335
36	6	8.9181
36	7	10.223
36	8	9.6823
36	9	9.15595
36	10	10.5703
36	11	12.5121
36	12	11.6748
36	13	10.8834
36	14	12.9965
36	15	9.69075
36	16	9.18496
36	17	10.5976
36	18	12.5295
36	19	9.44933
36	20	8.96163
36	21	10.3045
36	22	12.133
36	23	11.3614
36	24	8.76616
36	25	12.5956
36	26	11.7303
36	27	11.0161
36	28	10.3534
36	29	12.1991
36	30	9.23516
37	1	11.9859
37	2	11.2233
37	3	10.5501
37	4	12.4494
37	5	9.39335
37	6	8.9181
37	7	10.223
37	8	9.6823
37	9	9.15595
37	10	10.5703
37	11	12.5121
37	12	11.6748
37	13	10.8834
37	14	12.9965
37	15	9.69075
37	16	9.18496
37	17	10.5976
37	18	12.5295
37	19	9.44933
37	20	8.96163
37	21	10.3045
37	22	12.133
37	23	11.3614
37	24	8.76616
37	25	12.5956
37	26	11.7303
37	27	11.0161
37	28	10.3534
37	29	12.1991
37	30	9.23516
38	1	11.9859
38	2	11.2233
38	3	10.426
38	4	12.4494
38	5	9.39335
38	6	8.9181
38	7	10.0129
38	8	9.58077
38	9	9.15595
38	10	10.4546
38	11	12.5121
38	12	11.6748
38	13	10.8834
38	14	12.9965
38	15	9.58435
38	16	9.18496
38	17	10.494
38	18	12.5295
38	19	9.44933
38	20	8.96163
38	21	10.1065
38	22	12.133
38	23	11.3614
38	24	8.76616
38	25	12.5956
38	26	11.7303
38	27	11.0161
38	28	10.1657
38	29	12.1991
38	30	9.23516
39	1	11.9859
39	2	10.8446
39	3	9.61588
39	4	12.4494
39	5	8.21559
39	6	8.26879
39	7	9.1126
39	8	8.45125
39	9	8.1429
39	10	9.64936
39	11	12.5121
39	12	11.6748
39	13	10.1871
39	14	12.9965
39	15	8.45969
39	16	8.14249
39	17	9.69525
39	18	12.5295
39	19	8.25181
39	20	8.22888
39	21	9.23093
39	22	12.133
39	23	11.1459
39	24	8.58265
39	25	12.5956
39	26	11.7303
39	27	10.4312
39	28	9.30416
39	29	12.1991
39	30	8.14904
40	1	11.9859
40	2	11.2097
40	3	10.0174
40	4	12.4494
40	5	8.90194
40	6	8.9181
40	7	9.57421
40	8	9.03859
40	9	8.94769
40	10	10.0473
40	11	12.5121
40	12	11.6748
40	13	10.5556
40	14	12.9965
40	15	9.04461
40	16	8.93011
40	17	10.0884
40	18	12.5295
40	19	8.91603
40	20	8.96163
40	21	9.67694
40	22	12.133
40	23	11.3614
40	24	8.76616
40	25	12.5956
40	26	11.7303
40	27	10.7971
40	28	9.74104
40	29	12.1991
40	30	8.90898
41	1	11.9859
41	2	11.2233
41	3	10.3129
41	4	12.4494
41	5	9.37462
41	6	8.9181
41	7	9.89144
41	8	9.43067
41	9	9.15595
41	10	10.3419
41	11	12.5121
41	12	11.6748
41	13	10.8398
41	14	12.9965
41	15	9.43492
41	16	9.18496
41	17	10.3817
41	18	12.5295
41	19	9.36932
41	20	8.96163
41	21	9.98757
41	22	12.133
41	23	11.3614
41	24	8.76616
41	25	12.5956
41	26	11.7303
41	27	11.0161
41	28	10.0481
41	29	12.1991
41	30	9.23516
42	1	11.9859
42	2	11.2233
42	3	10.5501
42	4	12.4494
42	5	9.39335
42	6	8.9181
42	7	10.223
42	8	9.6823
42	9	9.15595
42	10	10.5703
42	11	12.5121
42	12	11.6748
42	13	10.8834
42	14	12.9965
42	15	9.69075
42	16	9.18496
42	17	10.5976
42	18	12.5295
42	19	9.44933
42	20	8.96163
42	21	10.3045
42	22	12.133
42	23	11.3614
42	24	8.76616
42	25	12.5956
42	26	11.7303
42	27	11.0161
42	28	10.3534
42	29	12.1991
42	30	9.23516
43	1	11.9859
43	2	11.2233
43	3	10.5501
43	4	12.4494
43	5	9.39335
43	6	8.9181
43	7	10.223
43	8	9.6823
43	9	9.15595
43	10	10.5703
43	11	12.5121
43	12	11.6748
43	13	10.8834
43	14	12.9965
43	15	9.69075
43	16	9.18496
43	17	10.5976
43	18	12.5295
43	19	9.44933
43	20	8.96163
43	21	10.3045
43	22	12.133
43	23	11.3614
43	24	8.76616
43	25	12.5956
43	26	11.7303
43	27	11.0161
43	28	10.3534
43	29	12.1991
43	30	9.23516
44	1	11.9859
44	2	11.2233
44	3	10.1674
44	4	12.4494
44	5	9.14189
44	6	8.9181
44	7	9.73525
44	8	9.23762
44	9	9.15595
44	10	10.1968
44	11	12.5121
44	12	11.6748
44	13	10.6998
44	14	12.9965
44	15	9.24274
44	16	9.18496
44	17	10.2373
44	18	12.5295
44	19	9.14613
44	20	8.96163
44	21	9.83463
44	22	12.133
44	23	11.3614
44	24	8.76616
44	25	12.5956
44	26	11.7303
44	27	10.9403
44	28	9.89692
44	29	12.1991
44	30	9.18432
45	1	11.9859
45	2	11.2233
45	3	10.4102
45	4	12.4494
45	5	9.39335
45	6	8.9181
45	7	9.99589
45	8	9.55977
45	9	9.15595
45	10	10.4388
45	11	12.5121
45	12	11.6748
45	13	10.8834
45	14	12.9965
45	15	9.56344
45	16	9.18496
45	17	10.4783
45	18	12.5295
45	19	9.44933
45	20	8.96163
45	21	10.0898
45	22	12.133
45	23	11.3614
45	24	8.76616
45	25	12.5956
45	26	11.7303
45	27	11.0161
45	28	10.1492
45	29	12.1991
45	30	9.23516
46	1	11.9859
46	2	11.2233
46	3	10.5501
46	4	12.4494
46	5	9.39335
46	6	8.9181
46	7	10.1933
46	8	9.6823
46	9	9.15595
46	10	10.5703
46	11	12.5121
46	12	11.6748
46	13	10.8834
46	14	12.9965
46	15	9.69075
46	16	9.18496
46	17	10.5976
46	18	12.5295
46	19	9.44933
46	20	8.96163
46	21	10.2832
46	22	12.133
46	23	11.3614
46	24	8.76616
46	25	12.5956
46	26	11.7303
46	27	11.0161
46	28	10.3403
46	29	12.1991
46	30	9.23516
47	1	11.9859
47	2	11.1958
47	3	10.0027
47	4	12.4494
47	5	8.87845
47	6	8.9181
47	7	9.55845
47	8	9.01911
47	9	8.91843
47	10	10.0327
47	11	12.5121
47	12	11.6748
47	13	10.5414
47	14	12.9965
47	15	9.02521
47	16	8.90174
47	17	10.0739
47	18	12.5295
47	19	8.8935
47	20	8.96163
47	21	9.6615
47	22	12.133
47	23	11.3614
47	24	8.76616
47	25	12.5956
47	26	11.7303
47	27	10.783
47	28	9.72578
47	29	12.1991
47	30	8.88202
48	1	11.9859
48	2	11.2233
48	3	10.2896
48	4	12.4494
48	5	9.33741
48	6	8.9181
48	7	9.86647
48	8	9.39981
48	9	9.15595
48	10	10.3187
48	11	12.5121
48	12	11.6748
48	13	10.8174
48	14	12.9965
48	15	9.4042
48	16	9.18496
48	17	10.3587
48	18	12.5295
48	19	9.33364
48	20	8.96163
48	21	9.96312
48	22	12.133
48	23	11.3614
48	24	8.76616
48	25	12.5956
48	26	11.7303
48	27	11.0161
48	28	10.0239
48	29	12.1991
48	30	9.23516
49	1	11.9859
49	2	11.2233
49	3	10.5501
49	4	12.4494
49	5	9.39335
49	6	8.9181
49	7	10.223
49	8	9.6823
49	9	9.15595
49	10	10.5703
49	11	12.5121
49	12	11.6748
49	13	10.8834
49	14	12.9965
49	15	9.69075
49	16	9.18496
49	17	10.5976
49	18	12.5295
49	19	9.44933
49	20	8.96163
49	21	10.3045
49	22	12.133
49	23	11.3614
49	24	8.76616
49	25	12.5956
49	26	11.7303
49	27	11.0161
49	28	10.3534
49	29	12.1991
49	30	9.23516
50	1	11.9859
50	2	11.0273
50	3	9.82596
50	4	12.4494
50	5	8.59577
50	6	8.79826
50	7	9.36311
50	8	8.76846
50	9	8.5663
50	10	9.85652
50	11	12.5121
50	12	11.6748
50	13	10.3715
50	14	12.9965
50	15	8.77532
50	16	8.56046
50	17	9.89845
50	18	12.5295
50	19	8.62241
50	20	8.72186
50	21	9.47554
50	22	12.133
50	23	11.3295
50	24	8.76616
50	25	12.5956
50	26	11.7303
50	27	10.6143
50	28	9.54214
50	29	12.1991
50	30	8.55764
51	1	11.9859
51	2	11.2233
51	3	10.1456
51	4	12.4494
51	5	9.10697
51	6	8.9181
51	7	9.71182
51	8	9.20867
51	9	9.15595
51	10	10.1751
51	11	12.5121
51	12	11.6748
51	13	10.6789
51	14	12.9965
51	15	9.21391
51	16	9.17765
51	17	10.2157
51	18	12.5295
51	19	9.11265
51	20	8.96163
51	21	9.81168
51	22	12.133
51	23	11.3614
51	24	8.76616
51	25	12.5956
51	26	11.7303
51	27	10.9195
51	28	9.87424
51	29	12.1991
51	30	9.14426
52	1	11.9859
52	2	11.2233
52	3	10.3997
52	4	12.4494
52	5	9.39335
52	6	8.9181
52	7	9.9846
52	8	9.54581
52	9	9.15595
52	10	10.4284
52	11	12.5121
52	12	11.6748
52	13	10.8834
52	14	12.9965
52	15	9.54954
52	16	9.18496
52	17	10.4679
52	18	12.5295
52	19	9.44933
52	20	8.96163
52	21	10.0788
52	22	12.133
52	23	11.3614
52	24	8.76616
52	25	12.5956
52	26	11.7303
52	27	11.0161
52	28	10.1383
52	29	12.1991
52	30	9.23516
53	1	11.9859
53	2	10.7776
53	3	9.5312
53	4	12.4494
53	5	8.0725
53	6	8.07245
53	7	9.02072
53	8	8.33491
53	9	7.96007
53	10	9.56499
53	11	12.5121
53	12	11.6748
53	13	10.1194
53	14	12.9965
53	15	8.34393
53	16	7.96595
53	17	9.61131
53	18	12.5295
53	19	8.1152
53	20	8.02131
53	21	9.14122
53	22	12.133
53	23	11.0786
53	24	8.3165
53	25	12.5956
53	26	11.7303
53	27	10.364
53	28	9.21562
53	29	12.1991
53	30	7.98226
54	1	11.9859
54	2	11.2233
54	3	10.5501
54	4	12.4494
54	5	9.39335
54	6	8.9181
54	7	10.223
54	8	9.6823
54	9	9.15595
54	10	10.5703
54	11	12.5121
54	12	11.6748
54	13	10.8834
54	14	12.9965
54	15	9.69075
54	16	9.18496
54	17	10.5976
54	18	12.5295
54	19	9.44933
54	20	8.96163
54	21	10.3045
54	22	12.133
54	23	11.3614
54	24	8.76616
54	25	12.5956
54	26	11.7303
54	27	11.0161
54	28	10.3534
54	29	12.1991
54	30	9.23516
55	1	11.9859
55	2	11.2233
55	3	10.5501
55	4	12.4494
55	5	9.39335
55	6	8.9181
55	7	10.223
55	8	9.6823
55	9	9.15595
55	10	10.5703
55	11	12.5121
55	12	11.6748
55	13	10.8834
55	14	12.9965
55	15	9.69075
55	16	9.18496
55	17	10.5976
55	18	12.5295
55	19	9.44933
55	20	8.96163
55	21	10.3045
55	22	12.133
55	23	11.3614
55	24	8.76616
55	25	12.5956
55	26	11.7303
55	27	11.0161
55	28	10.3534
55	29	12.1991
55	30	9.23516
56	1	11.9859
56	2	11.2233
56	3	10.5501
56	4	12.4494
56	5	9.39335
56	6	8.9181
56	7	10.223
56	8	9.6823
56	9	9.15595
56	10	10.5703
56	11	12.5121
56	12	11.6748
56	13	10.8834
56	14	12.9965
56	15	9.69075
56	16	9.18496
56	17	10.5976
56	18	12.5295
56	19	9.44933
56	20	8.96163
56	21	10.3045
56	22	12.133
56	23	11.3614
56	24	8.76616
56	25	12.5956
56	26	11.7303
56	27	11.0161
56	28	10.3534
56	29	12.1991
56	30	9.23516
57	1	11.9859
57	2	10.9814
57	3	9.77773
57	4	12.4494
57	5	8.50761
57	6	8.66507
57	7	9.30009
57	8	8.68866
57	9	8.4702
57	10	9.80845
57	11	12.5121
57	12	11.6748
57	13	10.3251
57	14	12.9965
57	15	8.69592
57	16	8.46731
57	17	9.85058
57	18	12.5295
57	19	8.53057
57	20	8.59785
57	21	9.41401
57	22	12.133
57	23	11.2833
57	24	8.76616
57	25	12.5956
57	26	11.7303
57	27	10.5682
57	28	9.48485
57	29	12.1991
57	30	8.46912
58	1	11.9859
58	2	11.2233
58	3	10.1333
58	4	12.4494
58	5	9.08739
58	6	8.9181
58	7	9.69868
58	8	9.19243
58	9	9.15595
58	10	10.1629
58	11	12.5121
58	12	11.6748
58	13	10.6671
58	14	12.9965
58	15	9.19775
58	16	9.15401
58	17	10.2035
58	18	12.5295
58	19	9.09388
58	20	8.96163
58	21	9.79882
58	22	12.133
58	23	11.3614
58	24	8.76616
58	25	12.5956
58	26	11.7303
58	27	10.9078
58	28	9.86152
58	29	12.1991
58	30	9.12179
59	1	11.9859
59	2	11.2233
59	3	10.5501
59	4	12.4494
59	5	9.39335
59	6	8.9181
59	7	10.223
59	8	9.6823
59	9	9.15595
59	10	10.5703
59	11	12.5121
59	12	11.6748
59	13	10.8834
59	14	12.9965
59	15	9.69075
59	16	9.18496
59	17	10.5976
59	18	12.5295
59	19	9.44933
59	20	8.96163
59	21	10.3045
59	22	12.133
59	23	11.3614
59	24	8.76616
59	25	12.5956
59	26	11.7303
59	27	11.0161
59	28	10.3534
59	29	12.1991
59	30	9.23516
60	1	11.9859
60	2	10.7518
60	3	9.49853
60	4	12.4494
60	5	8.01731
60	6	7.97013
60	7	8.98528
60	8	8.29004
60	9	7.88955
60	10	9.53246
60	11	12.5121
60	12	11.6748
60	13	10.0934
60	14	12.9965
60	15	8.29928
60	16	7.89787
60	17	9.57894
60	18	12.5295
60	19	8.06252
60	20	7.9271
60	21	9.10662
60	22	12.133
60	23	11.0526
60	24	8.21385
60	25	12.5956
60	26	11.7303
60	27	10.3381
60	28	9.18147
60	29	12.1991
60	30	7.91794
