
5

1 8  3 5.3 13   8.369   -0.502034 0.0651919 -0.00497    0.81477
2 6  5 4.2 12   7.11148 -0.602903 0.0680301 -0.00507334 0.766603
3 10 1 3.8 10.8 5.30343 -0.309098 0.0401807 -0.00427144 0.324494
4 4  7 2.0 9.8  3.49652 -1.215010 0.1236120 -0.00741996 1.978650
5 6  4 1.0 8.5  2.45413 -0.356522 0.0361532 -0.00363706 0.347968
