
9

1 8.00  3.00 5.3  13   8.369   -0.502034 0.0651919 -0.00497    0.81477
2 6.00  5.00 4.2  12   7.11148 -0.602903 0.0680301 -0.00507334 0.766603
3 10.00 1.00 3.8  10.8 5.30343 -0.309098 0.0401807 -0.00427144 0.324494
4 4.00  7.00 2.0  9.8  3.49652 -1.215010 0.1236120 -0.00741996 1.978650
5 6.00  4.00 1.0  8.5  2.45413 -0.356522 0.0361532 -0.00363706 0.347968
6 4.20  2.03 2.64 8.65 4.1899  -0.3789   0.0375    -0.0028     0.5832
7 4.19  3.48 1.83 5.43 2.8493  -0.2794   0.0295    -0.0021     0.4508
8 3.25  2.07 1.00 3.12 1.5440  -0.1402   0.0153    -0.0012     0.1984
9 3.89  2.93 1.80 5.5  2.8633  -0.2750   0.0315    -0.0025     0.3879
